%YAML 1.1
%TAG !u! tag:unity3d.com,2011:
--- !u!114 &-9158263212284301082
MonoBehaviour:
  m_ObjectHideFlags: 0
  m_CorrespondingSourceObject: {fileID: 0}
  m_PrefabInstance: {fileID: 0}
  m_PrefabAsset: {fileID: 0}
  m_GameObject: {fileID: 0}
  m_Enabled: 1
  m_EditorHideFlags: 0
  m_Script: {fileID: 11500000, guid: 7e567abbf4d944210acb6315178bb015, type: 3}
  m_Name: ARCameraFeature Android
  m_EditorClassIdentifier: 
  m_enabled: 1
  nameUi: 'Meta Quest: AR Camera (Passthrough)'
  version: 0.1.0
  featureIdInternal: com.unity.openxr.feature.arfoundation-meta-camera
  openxrExtensionStrings: XR_FB_passthrough XR_FB_composition_layer_alpha_blend
  company: Unity Technologies
  priority: 0
  required: 0
--- !u!114 &-9079316085892945041
MonoBehaviour:
  m_ObjectHideFlags: 0
  m_CorrespondingSourceObject: {fileID: 0}
  m_PrefabInstance: {fileID: 0}
  m_PrefabAsset: {fileID: 0}
  m_GameObject: {fileID: 0}
  m_Enabled: 1
  m_EditorHideFlags: 0
  m_Script: {fileID: 11500000, guid: 4e314dfef9af0904e80129bcc0a79361, type: 3}
  m_Name: HandTracking Standalone
  m_EditorClassIdentifier: 
  m_enabled: 1
  nameUi: Hand Tracking Subsystem
  version: 0.0.1
  featureIdInternal: com.unity.openxr.feature.input.handtracking
  openxrExtensionStrings: XR_EXT_hand_tracking
  company: Unity
  priority: -100
  required: 0
--- !u!114 &-9027627239741311155
MonoBehaviour:
  m_ObjectHideFlags: 0
  m_CorrespondingSourceObject: {fileID: 0}
  m_PrefabInstance: {fileID: 0}
  m_PrefabAsset: {fileID: 0}
  m_GameObject: {fileID: 0}
  m_Enabled: 1
  m_EditorHideFlags: 0
  m_Script: {fileID: 11500000, guid: 3d28f705476c80d47acb3dfade3d3142, type: 3}
  m_Name: MetaXRFoveationFeature Standalone
  m_EditorClassIdentifier: 
  m_enabled: 1
  nameUi: Meta XR Foveation
  version: 1.0.0
  featureIdInternal: com.meta.openxr.feature.foveation
  openxrExtensionStrings: 'XR_FB_foveation XR_FB_foveation_configuration XR_FB_foveation_vulkan '
  company: Meta
  priority: 0
  required: 0
--- !u!114 &-8939066665157449454
MonoBehaviour:
  m_ObjectHideFlags: 0
  m_CorrespondingSourceObject: {fileID: 0}
  m_PrefabInstance: {fileID: 0}
  m_PrefabAsset: {fileID: 0}
  m_GameObject: {fileID: 0}
  m_Enabled: 1
  m_EditorHideFlags: 0
  m_Script: {fileID: 11500000, guid: 2a24be4b5ebfe5f4d8ed1de9b25cb7aa, type: 3}
  m_Name: HandCommonPosesInteraction WSA
  m_EditorClassIdentifier: 
  m_enabled: 0
  nameUi: Hand Interaction Poses
  version: 0.0.1
  featureIdInternal: com.unity.openxr.feature.input.handinteractionposes
  openxrExtensionStrings: XR_EXT_hand_interaction
  company: Unity
  priority: 0
  required: 0
--- !u!114 &-8776083830351833173
MonoBehaviour:
  m_ObjectHideFlags: 0
  m_CorrespondingSourceObject: {fileID: 0}
  m_PrefabInstance: {fileID: 0}
  m_PrefabAsset: {fileID: 0}
  m_GameObject: {fileID: 0}
  m_Enabled: 1
  m_EditorHideFlags: 0
  m_Script: {fileID: 11500000, guid: 4ec7ac3a07bc448fbb43bbcff14d5b12, type: 3}
  m_Name: ARRaycastFeature Android
  m_EditorClassIdentifier: 
  m_enabled: 1
  nameUi: 'AR Foundation: Meta Quest Raycast'
  version: 0.1.0
  featureIdInternal: com.unity.openxr.feature.arfoundation-meta-raycast
  openxrExtensionStrings: 
  company: Unity Technologies
  priority: 0
  required: 0
--- !u!114 &-8470163300371861798
MonoBehaviour:
  m_ObjectHideFlags: 0
  m_CorrespondingSourceObject: {fileID: 0}
  m_PrefabInstance: {fileID: 0}
  m_PrefabAsset: {fileID: 0}
  m_GameObject: {fileID: 0}
  m_Enabled: 1
  m_EditorHideFlags: 0
  m_Script: {fileID: 11500000, guid: 076937beb8763d94790d2e9cc1248ac8, type: 3}
  m_Name: ARSessionFeature Android
  m_EditorClassIdentifier: 
  m_enabled: 1
  nameUi: 'Meta Quest: AR Session'
  version: 0.1.0
  featureIdInternal: com.unity.openxr.feature.arfoundation-meta-session
  openxrExtensionStrings: XR_FB_scene_capture
  company: Unity Technologies
  priority: 0
  required: 0
--- !u!114 &-8092162737403689752
MonoBehaviour:
  m_ObjectHideFlags: 0
  m_CorrespondingSourceObject: {fileID: 0}
  m_PrefabInstance: {fileID: 0}
  m_PrefabAsset: {fileID: 0}
  m_GameObject: {fileID: 0}
  m_Enabled: 1
  m_EditorHideFlags: 0
  m_Script: {fileID: 11500000, guid: 076937beb8763d94790d2e9cc1248ac8, type: 3}
  m_Name: ARFoundationFeature Android
  m_EditorClassIdentifier: 
  m_enabled: 0
  nameUi: 
  version: 
  featureIdInternal: 
  openxrExtensionStrings: 
  company: 
  priority: 0
  required: 0
--- !u!114 &-8010738350575489640
MonoBehaviour:
  m_ObjectHideFlags: 0
  m_CorrespondingSourceObject: {fileID: 0}
  m_PrefabInstance: {fileID: 0}
  m_PrefabAsset: {fileID: 0}
  m_GameObject: {fileID: 0}
  m_Enabled: 1
  m_EditorHideFlags: 0
  m_Script: {fileID: 11500000, guid: 761fdd4502cb7a84e9ec7a2b24f33f37, type: 3}
  m_Name: MicrosoftMotionControllerProfile WSA
  m_EditorClassIdentifier: 
  m_enabled: 1
  nameUi: Microsoft Motion Controller Profile
  version: 0.0.1
  featureIdInternal: com.unity.openxr.feature.input.microsoftmotioncontroller
  openxrExtensionStrings: 
  company: Unity
  priority: 0
  required: 0
--- !u!114 &-7949856907330547398
MonoBehaviour:
  m_ObjectHideFlags: 0
  m_CorrespondingSourceObject: {fileID: 0}
  m_PrefabInstance: {fileID: 0}
  m_PrefabAsset: {fileID: 0}
  m_GameObject: {fileID: 0}
  m_Enabled: 1
  m_EditorHideFlags: 0
  m_Script: {fileID: 11500000, guid: d00bb9c182ae8406ca03773119fa07ea, type: 3}
  m_Name: ARPlaneFeature Android
  m_EditorClassIdentifier: 
  m_enabled: 1
  nameUi: 'Meta Quest: AR Plane Detection'
  version: 0.1.0
  featureIdInternal: com.unity.openxr.feature.arfoundation-meta-plane
  openxrExtensionStrings: XR_FB_spatial_entity XR_FB_spatial_entity_query XR_FB_spatial_entity_storage
    XR_FB_scene
  company: Unity Technologies
  priority: 0
  required: 0
--- !u!114 &-7910166459874829151
MonoBehaviour:
  m_ObjectHideFlags: 0
  m_CorrespondingSourceObject: {fileID: 0}
  m_PrefabInstance: {fileID: 0}
  m_PrefabAsset: {fileID: 0}
  m_GameObject: {fileID: 0}
  m_Enabled: 1
  m_EditorHideFlags: 0
  m_Script: {fileID: 11500000, guid: 076937beb8763d94790d2e9cc1248ac8, type: 3}
  m_Name: ARFoundationFeature Android
  m_EditorClassIdentifier: 
  m_enabled: 0
  nameUi: 
  version: 
  featureIdInternal: 
  openxrExtensionStrings: 
  company: 
  priority: 0
  required: 0
--- !u!114 &-7895442964100881395
MonoBehaviour:
  m_ObjectHideFlags: 0
  m_CorrespondingSourceObject: {fileID: 0}
  m_PrefabInstance: {fileID: 0}
  m_PrefabAsset: {fileID: 0}
  m_GameObject: {fileID: 0}
  m_Enabled: 1
  m_EditorHideFlags: 0
  m_Script: {fileID: 11500000, guid: e5315f812f023cf4ebf26f7e5d2d70f2, type: 3}
  m_Name: HPReverbG2ControllerProfile Standalone
  m_EditorClassIdentifier: 
  m_enabled: 1
  nameUi: HP Reverb G2 Controller Profile
  version: 0.0.1
  featureIdInternal: com.unity.openxr.feature.input.hpreverb
  openxrExtensionStrings: XR_EXT_hp_mixed_reality_controller
  company: Unity
  priority: 0
  required: 0
--- !u!114 &-7773718812875860609
MonoBehaviour:
  m_ObjectHideFlags: 0
  m_CorrespondingSourceObject: {fileID: 0}
  m_PrefabInstance: {fileID: 0}
  m_PrefabAsset: {fileID: 0}
  m_GameObject: {fileID: 0}
  m_Enabled: 1
  m_EditorHideFlags: 0
  m_Script: {fileID: 11500000, guid: c4b862ee14fb479fbfe5fffe655d3ed3, type: 3}
  m_Name: MetaQuestTouchProControllerProfile WSA
  m_EditorClassIdentifier: 
  m_enabled: 0
  nameUi: Meta Quest Touch Pro Controller Profile
  version: 0.0.1
  featureIdInternal: com.unity.openxr.feature.input.metaquestpro
  openxrExtensionStrings: XR_FB_touch_controller_pro
  company: Unity
  priority: 0
  required: 0
--- !u!114 &-7768313152669196288
MonoBehaviour:
  m_ObjectHideFlags: 0
  m_CorrespondingSourceObject: {fileID: 0}
  m_PrefabInstance: {fileID: 0}
  m_PrefabAsset: {fileID: 0}
  m_GameObject: {fileID: 0}
  m_Enabled: 1
  m_EditorHideFlags: 0
  m_Script: {fileID: 11500000, guid: feeef8d85de8db242bdda70cc7ff5acd, type: 3}
  m_Name: OculusTouchControllerProfile WSA
  m_EditorClassIdentifier: 
  m_enabled: 0
  nameUi: Oculus Touch Controller Profile
  version: 0.0.1
  featureIdInternal: com.unity.openxr.feature.input.oculustouch
  openxrExtensionStrings: 
  company: Unity
  priority: 0
  required: 0
--- !u!114 &-7581625304019661375
MonoBehaviour:
  m_ObjectHideFlags: 0
  m_CorrespondingSourceObject: {fileID: 0}
  m_PrefabInstance: {fileID: 0}
  m_PrefabAsset: {fileID: 0}
  m_GameObject: {fileID: 0}
  m_Enabled: 1
  m_EditorHideFlags: 0
  m_Script: {fileID: 11500000, guid: 056125dd64c0ed540b40a4af74f7b495, type: 3}
  m_Name: RuntimeDebuggerOpenXRFeature Android
  m_EditorClassIdentifier: 
  m_enabled: 0
  nameUi: Runtime Debugger
  version: 1
  featureIdInternal: com.unity.openxr.features.runtimedebugger
  openxrExtensionStrings: 
  company: Unity
  priority: 0
  required: 0
  cacheSize: 1048576
  perThreadCacheSize: 51200
--- !u!114 &-7453394329167953402
MonoBehaviour:
  m_ObjectHideFlags: 0
  m_CorrespondingSourceObject: {fileID: 0}
  m_PrefabInstance: {fileID: 0}
  m_PrefabAsset: {fileID: 0}
  m_GameObject: {fileID: 0}
  m_Enabled: 1
  m_EditorHideFlags: 0
  m_Script: {fileID: 11500000, guid: 7e567abbf4d944210acb6315178bb015, type: 3}
  m_Name: ARCameraFeature Android
  m_EditorClassIdentifier: 
  m_enabled: 1
  nameUi: 'AR Foundation: Meta Quest Camera'
  version: 0.1.0
  featureIdInternal: com.unity.openxr.feature.arfoundation-meta-camera
  openxrExtensionStrings: XR_FB_passthrough XR_FB_composition_layer_alpha_blend
  company: Unity Technologies
  priority: 0
  required: 0
--- !u!114 &-7351301907148479589
MonoBehaviour:
  m_ObjectHideFlags: 0
  m_CorrespondingSourceObject: {fileID: 0}
  m_PrefabInstance: {fileID: 0}
  m_PrefabAsset: {fileID: 0}
  m_GameObject: {fileID: 0}
  m_Enabled: 1
  m_EditorHideFlags: 0
  m_Script: {fileID: 11500000, guid: c4b862ee14fb479fbfe5fffe655d3ed3, type: 3}
  m_Name: MetaQuestTouchProControllerProfile Standalone
  m_EditorClassIdentifier: 
  m_enabled: 1
  nameUi: Meta Quest Touch Pro Controller Profile
  version: 0.0.1
  featureIdInternal: com.unity.openxr.feature.input.metaquestpro
  openxrExtensionStrings: XR_FB_touch_controller_pro
  company: Unity
  priority: 0
  required: 0
--- !u!114 &-7309467503710647779
MonoBehaviour:
  m_ObjectHideFlags: 0
  m_CorrespondingSourceObject: {fileID: 0}
  m_PrefabInstance: {fileID: 0}
  m_PrefabAsset: {fileID: 0}
  m_GameObject: {fileID: 0}
  m_Enabled: 1
  m_EditorHideFlags: 0
  m_Script: {fileID: 11500000, guid: 4710975c7840e7d499bbb3757c22b0a5, type: 3}
  m_Name: MetaXRSubsampledLayout Android
  m_EditorClassIdentifier: 
  m_enabled: 0
  nameUi: Meta XR Subsampled Layout
  version: 0.0.1
  featureIdInternal: com.meta.openxr.feature.subsampledLayout
  openxrExtensionStrings: XR_META_vulkan_swapchain_create_info
  company: Meta
  priority: 0
  required: 0
--- !u!114 &-6972551045068313342
MonoBehaviour:
  m_ObjectHideFlags: 0
  m_CorrespondingSourceObject: {fileID: 0}
  m_PrefabInstance: {fileID: 0}
  m_PrefabAsset: {fileID: 0}
  m_GameObject: {fileID: 0}
  m_Enabled: 1
  m_EditorHideFlags: 0
  m_Script: {fileID: 11500000, guid: b5a1f07dc5afe854f9f12a4194aca3fb, type: 3}
  m_Name: Standalone
  m_EditorClassIdentifier: 
  features:
  - {fileID: 4963040286616351577}
  - {fileID: 5883027821610069653}
  - {fileID: 4893829345954421791}
  - {fileID: -6041192433602774156}
  - {fileID: 3257090942008302873}
  - {fileID: -9079316085892945041}
  - {fileID: -7895442964100881395}
  - {fileID: 2497339995422133549}
  - {fileID: -5941725581135416239}
  - {fileID: 2163979698669853125}
  - {fileID: -7351301907148479589}
  - {fileID: -719053579540850996}
  - {fileID: 1883868712941397503}
  - {fileID: -4068294426892650975}
  - {fileID: 8648385789788843109}
  - {fileID: 1507748248788215057}
  - {fileID: 7413458854745118488}
  - {fileID: 4054846353496584751}
  - {fileID: 154189092879288027}
  - {fileID: 7852363257649216605}
  - {fileID: 2316775424616146661}
  - {fileID: -5611916350011621528}
  m_renderMode: 1
  m_depthSubmissionMode: 0
  m_symmetricProjection: 0
--- !u!114 &-6078868055869984845
MonoBehaviour:
  m_ObjectHideFlags: 0
  m_CorrespondingSourceObject: {fileID: 0}
  m_PrefabInstance: {fileID: 0}
  m_PrefabAsset: {fileID: 0}
  m_GameObject: {fileID: 0}
  m_Enabled: 1
  m_EditorHideFlags: 0
  m_Script: {fileID: 11500000, guid: 9ef793c31862a37448e907829482ef80, type: 3}
  m_Name: OculusQuestFeature Android
  m_EditorClassIdentifier: 
  m_enabled: 0
  nameUi: Oculus Quest Support
  version: 1.0.0
  featureIdInternal: com.unity.openxr.feature.oculusquest
  openxrExtensionStrings: XR_OCULUS_android_initialize_loader
  company: Unity
  priority: 0
  required: 0
  targetQuest: 1
  targetQuest2: 1
--- !u!114 &-6067114029293227018
MonoBehaviour:
  m_ObjectHideFlags: 0
  m_CorrespondingSourceObject: {fileID: 0}
  m_PrefabInstance: {fileID: 0}
  m_PrefabAsset: {fileID: 0}
  m_GameObject: {fileID: 0}
  m_Enabled: 1
  m_EditorHideFlags: 0
  m_Script: {fileID: 11500000, guid: 076937beb8763d94790d2e9cc1248ac8, type: 3}
  m_Name: ARFoundationFeature Android
  m_EditorClassIdentifier: 
  m_enabled: 1
  nameUi: 'AR Foundation: Meta Quest Features'
  version: 0.1.0
  featureIdInternal: com.unity.openxr.feature.arfoundation-meta
  openxrExtensionStrings: 'XR_FB_passthrough XR_FB_spatial_entity XR_FB_spatial_entity_query
    XR_FB_spatial_entity_storage XR_FB_scene '
  company: Unity Technologies
  priority: 0
  required: 0
--- !u!114 &-6041192433602774156
MonoBehaviour:
  m_ObjectHideFlags: 0
  m_CorrespondingSourceObject: {fileID: 0}
  m_PrefabInstance: {fileID: 0}
  m_PrefabAsset: {fileID: 0}
  m_GameObject: {fileID: 0}
  m_Enabled: 1
  m_EditorHideFlags: 0
  m_Script: {fileID: 11500000, guid: 2a24be4b5ebfe5f4d8ed1de9b25cb7aa, type: 3}
  m_Name: HandCommonPosesInteraction Standalone
  m_EditorClassIdentifier: 
  m_enabled: 0
  nameUi: Hand Interaction Poses
  version: 0.0.1
  featureIdInternal: com.unity.openxr.feature.input.handinteractionposes
  openxrExtensionStrings: XR_EXT_hand_interaction
  company: Unity
  priority: 0
  required: 0
--- !u!114 &-5941725581135416239
MonoBehaviour:
  m_ObjectHideFlags: 0
  m_CorrespondingSourceObject: {fileID: 0}
  m_PrefabInstance: {fileID: 0}
  m_PrefabAsset: {fileID: 0}
  m_GameObject: {fileID: 0}
  m_Enabled: 1
  m_EditorHideFlags: 0
  m_Script: {fileID: 11500000, guid: 0f6bfdbcb316ed242b30a8798c9eb853, type: 3}
  m_Name: KHRSimpleControllerProfile Standalone
  m_EditorClassIdentifier: 
  m_enabled: 0
  nameUi: Khronos Simple Controller Profile
  version: 0.0.1
  featureIdInternal: com.unity.openxr.feature.input.khrsimpleprofile
  openxrExtensionStrings: 
  company: Unity
  priority: 0
  required: 0
--- !u!114 &-5883651887148789007
MonoBehaviour:
  m_ObjectHideFlags: 0
  m_CorrespondingSourceObject: {fileID: 0}
  m_PrefabInstance: {fileID: 0}
  m_PrefabAsset: {fileID: 0}
  m_GameObject: {fileID: 0}
  m_Enabled: 1
  m_EditorHideFlags: 0
  m_Script: {fileID: 11500000, guid: 85fd4a84074c74cb183c18e803dabb9e, type: 3}
  m_Name: ARAnchorFeature Android
  m_EditorClassIdentifier: 
  m_enabled: 1
  nameUi: 'AR Foundation: Meta Quest Anchor'
  version: 0.1.0
  featureIdInternal: com.unity.openxr.feature.arfoundation-meta-anchor
  openxrExtensionStrings: 'XR_FB_spatial_entity XR_FB_spatial_entity_query XR_FB_spatial_entity_storage '
  company: Unity Technologies
  priority: 0
  required: 0
--- !u!114 &-5660158769283318620
MonoBehaviour:
  m_ObjectHideFlags: 0
  m_CorrespondingSourceObject: {fileID: 0}
  m_PrefabInstance: {fileID: 0}
  m_PrefabAsset: {fileID: 0}
  m_GameObject: {fileID: 0}
  m_Enabled: 1
  m_EditorHideFlags: 0
  m_Script: {fileID: 11500000, guid: 5019471fb2174e5c852ecd4047163007, type: 3}
  m_Name: HandInteractionProfile Android
  m_EditorClassIdentifier: 
  m_enabled: 0
  nameUi: Hand Interaction Profile
  version: 0.0.1
  featureIdInternal: com.unity.openxr.feature.input.handinteraction
  openxrExtensionStrings: XR_EXT_hand_interaction
  company: Unity
  priority: 0
  required: 0
--- !u!114 &-5611916350011621528
MonoBehaviour:
  m_ObjectHideFlags: 0
  m_CorrespondingSourceObject: {fileID: 0}
  m_PrefabInstance: {fileID: 0}
  m_PrefabAsset: {fileID: 0}
  m_GameObject: {fileID: 0}
  m_Enabled: 1
  m_EditorHideFlags: 0
  m_Script: {fileID: 11500000, guid: 0d6ccd3d0ef0f1d458e69421dccbdae1, type: 3}
  m_Name: ValveIndexControllerProfile Standalone
  m_EditorClassIdentifier: 
  m_enabled: 0
  nameUi: Valve Index Controller Profile
  version: 0.0.1
  featureIdInternal: com.unity.openxr.feature.input.valveindex
  openxrExtensionStrings: 
  company: Unity
  priority: 0
  required: 0
--- !u!114 &-5190053797094401786
MonoBehaviour:
  m_ObjectHideFlags: 0
  m_CorrespondingSourceObject: {fileID: 0}
  m_PrefabInstance: {fileID: 0}
  m_PrefabAsset: {fileID: 0}
  m_GameObject: {fileID: 0}
  m_Enabled: 1
  m_EditorHideFlags: 0
  m_Script: {fileID: 11500000, guid: 7de993716e042c6499d0c18eed3a773c, type: 3}
  m_Name: MockRuntime Android
  m_EditorClassIdentifier: 
  m_enabled: 0
  nameUi: Mock Runtime
  version: 0.0.2
  featureIdInternal: com.unity.openxr.feature.mockruntime
  openxrExtensionStrings: XR_UNITY_null_gfx XR_UNITY_android_present
  company: Unity
  priority: 0
  required: 0
  ignoreValidationErrors: 0
--- !u!114 &-5022441705129952878
MonoBehaviour:
  m_ObjectHideFlags: 0
  m_CorrespondingSourceObject: {fileID: 0}
  m_PrefabInstance: {fileID: 0}
  m_PrefabAsset: {fileID: 0}
  m_GameObject: {fileID: 0}
  m_Enabled: 1
  m_EditorHideFlags: 0
  m_Script: {fileID: 11500000, guid: 274c02963f889a64e90bc2e596e21d13, type: 3}
  m_Name: HTCViveControllerProfile WSA
  m_EditorClassIdentifier: 
  m_enabled: 0
  nameUi: HTC Vive Controller Profile
  version: 0.0.1
  featureIdInternal: com.unity.openxr.feature.input.htcvive
  openxrExtensionStrings: 
  company: Unity
  priority: 0
  required: 0
--- !u!114 &-4998711357189552741
MonoBehaviour:
  m_ObjectHideFlags: 0
  m_CorrespondingSourceObject: {fileID: 0}
  m_PrefabInstance: {fileID: 0}
  m_PrefabAsset: {fileID: 0}
  m_GameObject: {fileID: 0}
  m_Enabled: 1
  m_EditorHideFlags: 0
  m_Script: {fileID: 11500000, guid: f028123e2efe1d443875bc7609b4a98b, type: 3}
  m_Name: PalmPoseInteraction Android
  m_EditorClassIdentifier: 
  m_enabled: 0
  nameUi: Palm Pose
  version: 0.0.1
  featureIdInternal: com.unity.openxr.feature.input.palmpose
  openxrExtensionStrings: XR_EXT_palm_pose
  company: Unity
  priority: 0
  required: 0
--- !u!114 &-4068294426892650975
MonoBehaviour:
  m_ObjectHideFlags: 0
  m_CorrespondingSourceObject: {fileID: 0}
  m_PrefabInstance: {fileID: 0}
  m_PrefabAsset: {fileID: 0}
  m_GameObject: {fileID: 0}
  m_Enabled: 1
  m_EditorHideFlags: 0
  m_Script: {fileID: 11500000, guid: 3d28f705476c80d47acb3dfade3d3142, type: 3}
  m_Name: MetaXRFoveationFeature Standalone
  m_EditorClassIdentifier: 
  m_enabled: 0
  nameUi: Meta XR Foveation
  version: 1.0.0
  featureIdInternal: com.meta.openxr.feature.foveation
  openxrExtensionStrings: 'XR_FB_foveation XR_FB_foveation_configuration XR_FB_foveation_vulkan '
  company: Meta
  priority: 0
  required: 0
--- !u!114 &-3956614612559697638
MonoBehaviour:
  m_ObjectHideFlags: 0
  m_CorrespondingSourceObject: {fileID: 0}
  m_PrefabInstance: {fileID: 0}
  m_PrefabAsset: {fileID: 0}
  m_GameObject: {fileID: 0}
  m_Enabled: 1
  m_EditorHideFlags: 0
  m_Script: {fileID: 11500000, guid: 1927c045052a06d49a9b21fdcaa26db6, type: 3}
  m_Name: MetaXRFeature Android
  m_EditorClassIdentifier: 
  m_enabled: 1
  nameUi: Meta XR Feature
  version: 0.0.1
  featureIdInternal: com.meta.openxr.feature.metaxr
  openxrExtensionStrings: 'XR_KHR_vulkan_enable XR_KHR_D3D11_enable XR_OCULUS_common_reference_spaces
    XR_FB_display_refresh_rate XR_EXT_performance_settings XR_FB_composition_layer_image_layout
    XR_KHR_android_surface_swapchain XR_FB_android_surface_swapchain_create XR_KHR_composition_layer_color_scale_bias
    XR_FB_color_space XR_EXT_hand_tracking XR_FB_swapchain_update_state XR_FB_swapchain_update_state_opengl_es
    XR_FB_swapchain_update_state_vulkan XR_FB_composition_layer_alpha_blend XR_KHR_composition_layer_depth
    XR_KHR_composition_layer_cylinder XR_KHR_composition_layer_cube XR_KHR_composition_layer_equirect2
    XR_KHR_convert_timespec_time XR_KHR_visibility_mask XR_FB_render_model XR_FB_spatial_entity
    XR_FB_spatial_entity_query XR_FB_spatial_entity_storage XR_META_performance_metrics
    XR_FB_scene XR_FB_spatial_entity_container XR_FB_scene_capture XR_FB_face_tracking
    XR_FB_eye_tracking XR_FB_keyboard_tracking XR_FB_passthrough XR_FB_triangle_mesh
    XR_FB_passthrough_keyboard_hands XR_OCULUS_audio_device_guid XR_FB_common_events
    XR_FB_space_warp XR_FB_hand_tracking_capsules XR_FB_hand_tracking_mesh XR_FB_hand_tracking_aim
    XR_FB_touch_controller_pro XR_FB_touch_controller_proximity '
  company: Meta
  priority: 0
  required: 0
--- !u!114 &-3884623058556172510
MonoBehaviour:
  m_ObjectHideFlags: 0
  m_CorrespondingSourceObject: {fileID: 0}
  m_PrefabInstance: {fileID: 0}
  m_PrefabAsset: {fileID: 0}
  m_GameObject: {fileID: 0}
  m_Enabled: 1
  m_EditorHideFlags: 0
  m_Script: {fileID: 11500000, guid: f928d0d73a35f294fbe357ca17aa3547, type: 3}
  m_Name: MicrosoftHandInteraction Android
  m_EditorClassIdentifier: 
  m_enabled: 0
  nameUi: Microsoft Hand Interaction Profile
  version: 0.0.1
  featureIdInternal: com.unity.openxr.feature.input.handtracking
  openxrExtensionStrings: XR_MSFT_hand_interaction
  company: Unity
  priority: 0
  required: 0
--- !u!114 &-3551639914286601086
MonoBehaviour:
  m_ObjectHideFlags: 0
  m_CorrespondingSourceObject: {fileID: 0}
  m_PrefabInstance: {fileID: 0}
  m_PrefabAsset: {fileID: 0}
  m_GameObject: {fileID: 0}
  m_Enabled: 1
  m_EditorHideFlags: 0
  m_Script: {fileID: 11500000, guid: f928d0d73a35f294fbe357ca17aa3547, type: 3}
  m_Name: MicrosoftHandInteraction WSA
  m_EditorClassIdentifier: 
  m_enabled: 0
  nameUi: 
  version: 
  featureIdInternal: 
  openxrExtensionStrings: 
  company: 
  priority: 0
  required: 0
--- !u!114 &-3340658034481943565
MonoBehaviour:
  m_ObjectHideFlags: 0
  m_CorrespondingSourceObject: {fileID: 0}
  m_PrefabInstance: {fileID: 0}
  m_PrefabAsset: {fileID: 0}
  m_GameObject: {fileID: 0}
  m_Enabled: 1
  m_EditorHideFlags: 0
  m_Script: {fileID: 11500000, guid: 2a24be4b5ebfe5f4d8ed1de9b25cb7aa, type: 3}
  m_Name: HandCommonPosesInteraction Android
  m_EditorClassIdentifier: 
  m_enabled: 0
  nameUi: Hand Interaction Poses
  version: 0.0.1
  featureIdInternal: com.unity.openxr.feature.input.handinteractionposes
  openxrExtensionStrings: XR_EXT_hand_interaction
  company: Unity
  priority: 0
  required: 0
--- !u!114 &-3032281408871642287
MonoBehaviour:
  m_ObjectHideFlags: 0
  m_CorrespondingSourceObject: {fileID: 0}
  m_PrefabInstance: {fileID: 0}
  m_PrefabAsset: {fileID: 0}
  m_GameObject: {fileID: 0}
  m_Enabled: 1
  m_EditorHideFlags: 0
  m_Script: {fileID: 11500000, guid: 0d6ccd3d0ef0f1d458e69421dccbdae1, type: 3}
  m_Name: ValveIndexControllerProfile WSA
  m_EditorClassIdentifier: 
  m_enabled: 0
  nameUi: Valve Index Controller Profile
  version: 0.0.1
  featureIdInternal: com.unity.openxr.feature.input.valveindex
  openxrExtensionStrings: 
  company: Unity
  priority: 0
  required: 0
--- !u!114 &-2869731202771628586
MonoBehaviour:
  m_ObjectHideFlags: 0
  m_CorrespondingSourceObject: {fileID: 0}
  m_PrefabInstance: {fileID: 0}
  m_PrefabAsset: {fileID: 0}
  m_GameObject: {fileID: 0}
  m_Enabled: 1
  m_EditorHideFlags: 0
  m_Script: {fileID: 11500000, guid: 4ec7ac3a07bc448fbb43bbcff14d5b12, type: 3}
  m_Name: ARRaycastFeature Android
  m_EditorClassIdentifier: 
  m_enabled: 1
  nameUi: 'Meta Quest: AR Raycasts'
  version: 0.1.0
  featureIdInternal: com.unity.openxr.feature.arfoundation-meta-raycast
  openxrExtensionStrings: 
  company: Unity Technologies
  priority: 0
  required: 0
--- !u!114 &-2741558179713482703
MonoBehaviour:
  m_ObjectHideFlags: 0
  m_CorrespondingSourceObject: {fileID: 0}
  m_PrefabInstance: {fileID: 0}
  m_PrefabAsset: {fileID: 0}
  m_GameObject: {fileID: 0}
  m_Enabled: 1
  m_EditorHideFlags: 0
  m_Script: {fileID: 11500000, guid: 076937beb8763d94790d2e9cc1248ac8, type: 3}
  m_Name: ARFoundationFeature Android
  m_EditorClassIdentifier: 
  m_enabled: 1
  nameUi: 'AR Foundation: Meta'
  version: 0.1.0
  featureIdInternal: com.unity.openxr.feature.arfoundation-meta
  openxrExtensionStrings: 'XR_FB_passthrough XR_FB_composition_layer_alpha_blend
    XR_FB_spatial_entity XR_FB_spatial_entity_query XR_FB_spatial_entity_storage
    XR_FB_scene '
  company: Unity Technologies
  priority: 0
  required: 0
--- !u!114 &-2446982117346300164
MonoBehaviour:
  m_ObjectHideFlags: 0
  m_CorrespondingSourceObject: {fileID: 0}
  m_PrefabInstance: {fileID: 0}
  m_PrefabAsset: {fileID: 0}
  m_GameObject: {fileID: 0}
  m_Enabled: 1
  m_EditorHideFlags: 0
  m_Script: {fileID: 11500000, guid: 486b5e28864f9a94b979b9620ce5006d, type: 3}
  m_Name: ConformanceAutomationFeature WSA
  m_EditorClassIdentifier: 
  m_enabled: 0
  nameUi: 
  version: 
  featureIdInternal: 
  openxrExtensionStrings: 
  company: 
  priority: 0
  required: 0
--- !u!114 &-2381090387618591329
MonoBehaviour:
  m_ObjectHideFlags: 0
  m_CorrespondingSourceObject: {fileID: 0}
  m_PrefabInstance: {fileID: 0}
  m_PrefabAsset: {fileID: 0}
  m_GameObject: {fileID: 0}
  m_Enabled: 1
  m_EditorHideFlags: 0
  m_Script: {fileID: 11500000, guid: 9c5b5af5107e35a43818d5411328bfc3, type: 3}
  m_Name: DPadInteraction WSA
  m_EditorClassIdentifier: 
  m_enabled: 0
  nameUi: D-Pad Binding
  version: 0.0.1
  featureIdInternal: com.unity.openxr.feature.input.dpadinteraction
  openxrExtensionStrings: XR_KHR_binding_modification XR_EXT_dpad_binding
  company: Unity
  priority: 0
  required: 0
  forceThresholdLeft: 0.5
  forceThresholdReleaseLeft: 0.4
  centerRegionLeft: 0.5
  wedgeAngleLeft: 1.5707964
  isStickyLeft: 0
  forceThresholdRight: 0.5
  forceThresholdReleaseRight: 0.4
  centerRegionRight: 0.5
  wedgeAngleRight: 1.5707964
  isStickyRight: 0
  extensionStrings:
  - XR_KHR_binding_modification
  - XR_EXT_dpad_binding
--- !u!114 &-2203309040565481515
MonoBehaviour:
  m_ObjectHideFlags: 0
  m_CorrespondingSourceObject: {fileID: 0}
  m_PrefabInstance: {fileID: 0}
  m_PrefabAsset: {fileID: 0}
  m_GameObject: {fileID: 0}
  m_Enabled: 1
  m_EditorHideFlags: 0
  m_Script: {fileID: 11500000, guid: d00bb9c182ae8406ca03773119fa07ea, type: 3}
  m_Name: ARPlaneFeature Android
  m_EditorClassIdentifier: 
  m_enabled: 1
  nameUi: 'AR Foundation: Meta Quest Plane'
  version: 0.1.0
  featureIdInternal: com.unity.openxr.feature.arfoundation-meta-plane
  openxrExtensionStrings: 'XR_FB_spatial_entity XR_FB_spatial_entity_query XR_FB_spatial_entity_storage
    XR_FB_scene '
  company: Unity Technologies
  priority: 0
  required: 0
--- !u!114 &-1998296605311725746
MonoBehaviour:
  m_ObjectHideFlags: 0
  m_CorrespondingSourceObject: {fileID: 0}
  m_PrefabInstance: {fileID: 0}
  m_PrefabAsset: {fileID: 0}
  m_GameObject: {fileID: 0}
  m_Enabled: 1
  m_EditorHideFlags: 0
  m_Script: {fileID: 11500000, guid: dfde4033cbc8045a69c465b226fd4284, type: 3}
  m_Name: DisplayUtilitiesFeature Android
  m_EditorClassIdentifier: 
  m_enabled: 0
  nameUi: 'Meta Quest: Display Utilities'
  version: 0.1.0
  featureIdInternal: com.unity.openxr.feature.meta-display-utilities
  openxrExtensionStrings: XR_FB_display_refresh_rate
  company: Unity Technologies
  priority: 0
  required: 0
--- !u!114 &-1826762631642183856
MonoBehaviour:
  m_ObjectHideFlags: 0
  m_CorrespondingSourceObject: {fileID: 0}
  m_PrefabInstance: {fileID: 0}
  m_PrefabAsset: {fileID: 0}
  m_GameObject: {fileID: 0}
  m_Enabled: 1
  m_EditorHideFlags: 0
  m_Script: {fileID: 0}
  m_Name: DisplayUtilitiesFeature Android
  m_EditorClassIdentifier: Unity.XR.MetaOpenXR:UnityEngine.XR.OpenXR.Features.Meta:DisplayUtilitiesFeature
  m_enabled: 1
  nameUi: 'Meta Quest: Display Utilities'
  version: 0.1.0
  featureIdInternal: com.unity.openxr.feature.meta-display-utilities
  openxrExtensionStrings: XR_FB_display_refresh_rate
  company: Unity Technologies
  priority: 0
  required: 0
--- !u!114 &-1738509262826135873
MonoBehaviour:
  m_ObjectHideFlags: 0
  m_CorrespondingSourceObject: {fileID: 0}
  m_PrefabInstance: {fileID: 0}
  m_PrefabAsset: {fileID: 0}
  m_GameObject: {fileID: 0}
  m_Enabled: 1
  m_EditorHideFlags: 0
  m_Script: {fileID: 11500000, guid: f028123e2efe1d443875bc7609b4a98b, type: 3}
  m_Name: PalmPoseInteraction WSA
  m_EditorClassIdentifier: 
  m_enabled: 0
  nameUi: Palm Pose
  version: 0.0.1
  featureIdInternal: com.unity.openxr.feature.input.palmpose
  openxrExtensionStrings: XR_EXT_palm_pose
  company: Unity
  priority: 0
  required: 0
--- !u!114 &-1190772441457569148
MonoBehaviour:
  m_ObjectHideFlags: 0
  m_CorrespondingSourceObject: {fileID: 0}
  m_PrefabInstance: {fileID: 0}
  m_PrefabAsset: {fileID: 0}
  m_GameObject: {fileID: 0}
  m_Enabled: 1
  m_EditorHideFlags: 0
  m_Script: {fileID: 11500000, guid: b3aced3429e5911458f4da2dac9d0f29, type: 3}
  m_Name: MetaHandTrackingAim Android
  m_EditorClassIdentifier: 
  m_enabled: 1
  nameUi: Meta Hand Tracking Aim
  version: 0.0.1
  featureIdInternal: com.unity.openxr.feature.input.metahandtrackingaim
  openxrExtensionStrings: XR_FB_hand_tracking_aim
  company: Unity
  priority: 0
  required: 0
--- !u!114 &-1025905340561916859
MonoBehaviour:
  m_ObjectHideFlags: 0
  m_CorrespondingSourceObject: {fileID: 0}
  m_PrefabInstance: {fileID: 0}
  m_PrefabAsset: {fileID: 0}
  m_GameObject: {fileID: 0}
  m_Enabled: 1
  m_EditorHideFlags: 0
  m_Script: {fileID: 11500000, guid: c4b862ee14fb479fbfe5fffe655d3ed3, type: 3}
  m_Name: MetaQuestTouchProControllerProfile Android
  m_EditorClassIdentifier: 
  m_enabled: 1
  nameUi: Meta Quest Touch Pro Controller Profile
  version: 0.0.1
  featureIdInternal: com.unity.openxr.feature.input.metaquestpro
  openxrExtensionStrings: XR_FB_touch_controller_pro
  company: Unity
  priority: 0
  required: 0
--- !u!114 &-719053579540850996
MonoBehaviour:
  m_ObjectHideFlags: 0
  m_CorrespondingSourceObject: {fileID: 0}
  m_PrefabInstance: {fileID: 0}
  m_PrefabAsset: {fileID: 0}
  m_GameObject: {fileID: 0}
  m_Enabled: 1
  m_EditorHideFlags: 0
  m_Script: {fileID: 11500000, guid: e573a2aed6698b047aff95224499b722, type: 3}
  m_Name: MetaXREyeTrackedFoveationFeature Standalone
  m_EditorClassIdentifier: 
  m_enabled: 0
  nameUi: Meta XR Eye Tracked Foveation
  version: 0.0.1
  featureIdInternal: com.meta.openxr.feature.eyetrackedfoveation
  openxrExtensionStrings: XR_META_foveation_eye_tracked XR_FB_eye_tracking_social
    XR_META_vulkan_swapchain_create_info
  company: Meta
  priority: 0
  required: 0
--- !u!114 &-626350575328049508
MonoBehaviour:
  m_ObjectHideFlags: 0
  m_CorrespondingSourceObject: {fileID: 0}
  m_PrefabInstance: {fileID: 0}
  m_PrefabAsset: {fileID: 0}
  m_GameObject: {fileID: 0}
  m_Enabled: 1
  m_EditorHideFlags: 0
  m_Script: {fileID: 11500000, guid: 4e314dfef9af0904e80129bcc0a79361, type: 3}
  m_Name: HandTracking Android
  m_EditorClassIdentifier: 
  m_enabled: 1
  nameUi: Hand Tracking Subsystem
  version: 0.0.1
  featureIdInternal: com.unity.openxr.feature.input.handtracking
  openxrExtensionStrings: XR_EXT_hand_tracking
  company: Unity
  priority: -100
  required: 0
--- !u!114 &-405352373710440205
MonoBehaviour:
  m_ObjectHideFlags: 0
  m_CorrespondingSourceObject: {fileID: 0}
  m_PrefabInstance: {fileID: 0}
  m_PrefabAsset: {fileID: 0}
  m_GameObject: {fileID: 0}
  m_Enabled: 1
  m_EditorHideFlags: 0
  m_Script: {fileID: 11500000, guid: 3d28f705476c80d47acb3dfade3d3142, type: 3}
  m_Name: MetaXRFoveationFeature Android
  m_EditorClassIdentifier: 
  m_enabled: 1
  nameUi: Meta XR Foveation
  version: 1.0.0
  featureIdInternal: com.meta.openxr.feature.foveation
  openxrExtensionStrings: 'XR_FB_foveation XR_FB_foveation_configuration XR_FB_foveation_vulkan '
  company: Meta
  priority: 0
  required: 0
--- !u!114 &-329847314279545157
MonoBehaviour:
  m_ObjectHideFlags: 0
  m_CorrespondingSourceObject: {fileID: 0}
  m_PrefabInstance: {fileID: 0}
  m_PrefabAsset: {fileID: 0}
  m_GameObject: {fileID: 0}
  m_Enabled: 1
  m_EditorHideFlags: 0
  m_Script: {fileID: 11500000, guid: dfde4033cbc8045a69c465b226fd4284, type: 3}
  m_Name: DisplayUtilitiesFeature Android
  m_EditorClassIdentifier: 
  m_enabled: 1
  nameUi: 'Meta Quest: Display Utilities'
  version: 0.1.0
  featureIdInternal: com.unity.openxr.feature.meta-display-utilities
  openxrExtensionStrings: XR_FB_display_refresh_rate
  company: Unity Technologies
  priority: 0
  required: 0
--- !u!114 &-263211618680627667
MonoBehaviour:
  m_ObjectHideFlags: 0
  m_CorrespondingSourceObject: {fileID: 0}
  m_PrefabInstance: {fileID: 0}
  m_PrefabAsset: {fileID: 0}
  m_GameObject: {fileID: 0}
  m_Enabled: 1
  m_EditorHideFlags: 0
  m_Script: {fileID: 11500000, guid: b3cf79659a011bd419c7a2a30eb74e9a, type: 3}
  m_Name: EyeGazeInteraction WSA
  m_EditorClassIdentifier: 
  m_enabled: 0
  nameUi: 
  version: 
  featureIdInternal: 
  openxrExtensionStrings: 
  company: 
  priority: 0
  required: 0
--- !u!114 &-64324148185763206
MonoBehaviour:
  m_ObjectHideFlags: 0
  m_CorrespondingSourceObject: {fileID: 0}
  m_PrefabInstance: {fileID: 0}
  m_PrefabAsset: {fileID: 0}
  m_GameObject: {fileID: 0}
  m_Enabled: 1
  m_EditorHideFlags: 0
  m_Script: {fileID: 11500000, guid: b5a1f07dc5afe854f9f12a4194aca3fb, type: 3}
  m_Name: Android
  m_EditorClassIdentifier: 
  features:
  - {fileID: 1409575555154228534}
  - {fileID: -9158263212284301082}
  - {fileID: -7949856907330547398}
  - {fileID: -2869731202771628586}
  - {fileID: 8594420097343157094}
  - {fileID: 7558681416710770871}
  - {fileID: -329847314279545157}
  - {fileID: 1439519674761587512}
  - {fileID: 3554264124859437666}
  - {fileID: -3340658034481943565}
  - {fileID: -5660158769283318620}
  - {fileID: -626350575328049508}
  - {fileID: 9020184986697725232}
  - {fileID: -1190772441457569148}
  - {fileID: 7497383018830012468}
  - {fileID: -1025905340561916859}
  - {fileID: 6168485342768805392}
  - {fileID: 3093742897576068465}
  - {fileID: 7671326878688671304}
  - {fileID: 1532238827761338485}
  - {fileID: -3884623058556172510}
  - {fileID: -5190053797094401786}
  - {fileID: -6078868055869984845}
  - {fileID: 4743943348186933471}
  - {fileID: -4998711357189552741}
  - {fileID: -7581625304019661375}
  m_renderMode: 1
  m_depthSubmissionMode: 0
  m_symmetricProjection: 0
--- !u!114 &11400000
MonoBehaviour:
  m_ObjectHideFlags: 0
  m_CorrespondingSourceObject: {fileID: 0}
  m_PrefabInstance: {fileID: 0}
  m_PrefabAsset: {fileID: 0}
  m_GameObject: {fileID: 0}
  m_Enabled: 1
  m_EditorHideFlags: 0
  m_Script: {fileID: 11500000, guid: 9f0ebc320a151d3408ea1e9fce54d40e, type: 3}
  m_Name: Open XR Package Settings
  m_EditorClassIdentifier: 
  Keys: 01000000070000000e000000
  Values:
  - {fileID: -6972551045068313342}
  - {fileID: -64324148185763206}
  - {fileID: 4257799398954384198}
--- !u!114 &69402297383476091
MonoBehaviour:
  m_ObjectHideFlags: 0
  m_CorrespondingSourceObject: {fileID: 0}
  m_PrefabInstance: {fileID: 0}
  m_PrefabAsset: {fileID: 0}
  m_GameObject: {fileID: 0}
  m_Enabled: 1
  m_EditorHideFlags: 0
  m_Script: {fileID: 11500000, guid: feeef8d85de8db242bdda70cc7ff5acd, type: 3}
  m_Name: OculusTouchControllerProfile WSA
  m_EditorClassIdentifier: 
  m_enabled: 0
  nameUi: 
  version: 
  featureIdInternal: 
  openxrExtensionStrings: 
  company: 
  priority: 0
  required: 0
--- !u!114 &154189092879288027
MonoBehaviour:
  m_ObjectHideFlags: 0
  m_CorrespondingSourceObject: {fileID: 0}
  m_PrefabInstance: {fileID: 0}
  m_PrefabAsset: {fileID: 0}
  m_GameObject: {fileID: 0}
  m_Enabled: 1
  m_EditorHideFlags: 0
  m_Script: {fileID: 11500000, guid: feeef8d85de8db242bdda70cc7ff5acd, type: 3}
  m_Name: OculusTouchControllerProfile Standalone
  m_EditorClassIdentifier: 
  m_enabled: 1
  nameUi: Oculus Touch Controller Profile
  version: 0.0.1
  featureIdInternal: com.unity.openxr.feature.input.oculustouch
  openxrExtensionStrings: 
  company: Unity
  priority: 0
  required: 0
--- !u!114 &370417978492554722
MonoBehaviour:
  m_ObjectHideFlags: 0
  m_CorrespondingSourceObject: {fileID: 0}
  m_PrefabInstance: {fileID: 0}
  m_PrefabAsset: {fileID: 0}
  m_GameObject: {fileID: 0}
  m_Enabled: 1
  m_EditorHideFlags: 0
  m_Script: {fileID: 11500000, guid: 4e314dfef9af0904e80129bcc0a79361, type: 3}
  m_Name: HandTracking WSA
  m_EditorClassIdentifier: 
  m_enabled: 1
  nameUi: Hand Tracking Subsystem
  version: 0.0.1
  featureIdInternal: com.unity.openxr.feature.input.handtracking
  openxrExtensionStrings: XR_EXT_hand_tracking
  company: Unity
  priority: -100
  required: 0
--- !u!114 &499066867633824850
MonoBehaviour:
  m_ObjectHideFlags: 0
  m_CorrespondingSourceObject: {fileID: 0}
  m_PrefabInstance: {fileID: 0}
  m_PrefabAsset: {fileID: 0}
  m_GameObject: {fileID: 0}
  m_Enabled: 1
  m_EditorHideFlags: 0
  m_Script: {fileID: 11500000, guid: 5019471fb2174e5c852ecd4047163007, type: 3}
  m_Name: HandInteractionProfile WSA
  m_EditorClassIdentifier: 
  m_enabled: 0
  nameUi: Hand Interaction Profile
  version: 0.0.1
  featureIdInternal: com.unity.openxr.feature.input.handinteraction
  openxrExtensionStrings: XR_EXT_hand_interaction
  company: Unity
  priority: 0
  required: 0
--- !u!114 &561787802829310921
MonoBehaviour:
  m_ObjectHideFlags: 0
  m_CorrespondingSourceObject: {fileID: 0}
  m_PrefabInstance: {fileID: 0}
  m_PrefabAsset: {fileID: 0}
  m_GameObject: {fileID: 0}
  m_Enabled: 1
  m_EditorHideFlags: 0
  m_Script: {fileID: 11500000, guid: e573a2aed6698b047aff95224499b722, type: 3}
  m_Name: MetaXREyeTrackedFoveationFeature Standalone
  m_EditorClassIdentifier: 
  m_enabled: 0
  nameUi: Meta XR Eye Tracked Foveation
  version: 0.0.1
  featureIdInternal: com.meta.openxr.feature.eyetrackedfoveation
  openxrExtensionStrings: XR_META_foveation_eye_tracked XR_FB_eye_tracking_social
    XR_META_vulkan_swapchain_create_info
  company: Meta
  priority: 0
  required: 0
--- !u!114 &624869861315048294
MonoBehaviour:
  m_ObjectHideFlags: 0
  m_CorrespondingSourceObject: {fileID: 0}
  m_PrefabInstance: {fileID: 0}
  m_PrefabAsset: {fileID: 0}
  m_GameObject: {fileID: 0}
  m_Enabled: 1
  m_EditorHideFlags: 0
  m_Script: {fileID: 11500000, guid: dfde4033cbc8045a69c465b226fd4284, type: 3}
  m_Name: DisplayUtilitiesFeature Android
  m_EditorClassIdentifier: 
  m_enabled: 1
  nameUi: 'Meta Quest: Display Utilities'
  version: 0.1.0
  featureIdInternal: com.unity.openxr.feature.meta-display-utilities
  openxrExtensionStrings: XR_FB_display_refresh_rate
  company: Unity Technologies
  priority: 0
  required: 0
--- !u!114 &971607214742132087
MonoBehaviour:
  m_ObjectHideFlags: 0
  m_CorrespondingSourceObject: {fileID: 0}
  m_PrefabInstance: {fileID: 0}
  m_PrefabAsset: {fileID: 0}
  m_GameObject: {fileID: 0}
  m_Enabled: 1
  m_EditorHideFlags: 0
  m_Script: {fileID: 11500000, guid: 274c02963f889a64e90bc2e596e21d13, type: 3}
  m_Name: HTCViveControllerProfile WSA
  m_EditorClassIdentifier: 
  m_enabled: 0
  nameUi: 
  version: 
  featureIdInternal: 
  openxrExtensionStrings: 
  company: 
  priority: 0
  required: 0
--- !u!114 &1129576128208380720
MonoBehaviour:
  m_ObjectHideFlags: 0
  m_CorrespondingSourceObject: {fileID: 0}
  m_PrefabInstance: {fileID: 0}
  m_PrefabAsset: {fileID: 0}
  m_GameObject: {fileID: 0}
  m_Enabled: 1
  m_EditorHideFlags: 0
  m_Script: {fileID: 11500000, guid: 4710975c7840e7d499bbb3757c22b0a5, type: 3}
  m_Name: MetaXRSubsampledLayout Standalone
  m_EditorClassIdentifier: 
  m_enabled: 0
  nameUi: Meta XR Subsampled Layout
  version: 0.0.1
  featureIdInternal: com.meta.openxr.feature.subsampledLayout
  openxrExtensionStrings: XR_META_vulkan_swapchain_create_info
  company: Meta
  priority: 0
  required: 0
--- !u!114 &1409575555154228534
MonoBehaviour:
  m_ObjectHideFlags: 0
  m_CorrespondingSourceObject: {fileID: 0}
  m_PrefabInstance: {fileID: 0}
  m_PrefabAsset: {fileID: 0}
  m_GameObject: {fileID: 0}
  m_Enabled: 1
  m_EditorHideFlags: 0
  m_Script: {fileID: 11500000, guid: 85fd4a84074c74cb183c18e803dabb9e, type: 3}
  m_Name: ARAnchorFeature Android
  m_EditorClassIdentifier: 
  m_enabled: 1
  nameUi: 'Meta Quest: AR Anchors'
  version: 0.1.0
  featureIdInternal: com.unity.openxr.feature.arfoundation-meta-anchor
  openxrExtensionStrings: XR_FB_spatial_entity
  company: Unity Technologies
  priority: 0
  required: 0
--- !u!114 &1439519674761587512
MonoBehaviour:
  m_ObjectHideFlags: 0
  m_CorrespondingSourceObject: {fileID: 0}
  m_PrefabInstance: {fileID: 0}
  m_PrefabAsset: {fileID: 0}
  m_GameObject: {fileID: 0}
  m_Enabled: 1
  m_EditorHideFlags: 0
  m_Script: {fileID: 11500000, guid: 9c5b5af5107e35a43818d5411328bfc3, type: 3}
  m_Name: DPadInteraction Android
  m_EditorClassIdentifier: 
  m_enabled: 0
  nameUi: D-Pad Binding
  version: 0.0.1
  featureIdInternal: com.unity.openxr.feature.input.dpadinteraction
  openxrExtensionStrings: XR_KHR_binding_modification XR_EXT_dpad_binding
  company: Unity
  priority: 0
  required: 0
  forceThresholdLeft: 0.5
  forceThresholdReleaseLeft: 0.4
  centerRegionLeft: 0.5
  wedgeAngleLeft: 1.5707964
  isStickyLeft: 0
  forceThresholdRight: 0.5
  forceThresholdReleaseRight: 0.4
  centerRegionRight: 0.5
  wedgeAngleRight: 1.5707964
  isStickyRight: 0
  extensionStrings:
  - XR_KHR_binding_modification
  - XR_EXT_dpad_binding
--- !u!114 &1507748248788215057
MonoBehaviour:
  m_ObjectHideFlags: 0
  m_CorrespondingSourceObject: {fileID: 0}
  m_PrefabInstance: {fileID: 0}
  m_PrefabAsset: {fileID: 0}
  m_GameObject: {fileID: 0}
  m_Enabled: 1
  m_EditorHideFlags: 0
  m_Script: {fileID: 11500000, guid: f928d0d73a35f294fbe357ca17aa3547, type: 3}
  m_Name: MicrosoftHandInteraction Standalone
  m_EditorClassIdentifier: 
  m_enabled: 0
  nameUi: Microsoft Hand Interaction Profile
  version: 0.0.1
  featureIdInternal: com.unity.openxr.feature.input.handtracking
  openxrExtensionStrings: XR_MSFT_hand_interaction
  company: Unity
  priority: 0
  required: 0
--- !u!114 &1532238827761338485
MonoBehaviour:
  m_ObjectHideFlags: 0
  m_CorrespondingSourceObject: {fileID: 0}
  m_PrefabInstance: {fileID: 0}
  m_PrefabAsset: {fileID: 0}
  m_GameObject: {fileID: 0}
  m_Enabled: 1
  m_EditorHideFlags: 0
  m_Script: {fileID: 11500000, guid: 4710975c7840e7d499bbb3757c22b0a5, type: 3}
  m_Name: MetaXRSubsampledLayout Android
  m_EditorClassIdentifier: 
  m_enabled: 0
  nameUi: Meta XR Subsampled Layout
  version: 0.0.1
  featureIdInternal: com.meta.openxr.feature.subsampledLayout
  openxrExtensionStrings: XR_META_vulkan_swapchain_create_info
  company: Meta
  priority: 0
  required: 0
--- !u!114 &1883868712941397503
MonoBehaviour:
  m_ObjectHideFlags: 0
  m_CorrespondingSourceObject: {fileID: 0}
  m_PrefabInstance: {fileID: 0}
  m_PrefabAsset: {fileID: 0}
  m_GameObject: {fileID: 0}
  m_Enabled: 1
  m_EditorHideFlags: 0
  m_Script: {fileID: 11500000, guid: 1927c045052a06d49a9b21fdcaa26db6, type: 3}
  m_Name: MetaXRFeature Standalone
  m_EditorClassIdentifier: 
  m_enabled: 1
  nameUi: Meta XR Feature
  version: 0.0.1
  featureIdInternal: com.meta.openxr.feature.metaxr
  openxrExtensionStrings: 'XR_KHR_vulkan_enable XR_KHR_D3D11_enable XR_OCULUS_common_reference_spaces
    XR_FB_display_refresh_rate XR_EXT_performance_settings XR_FB_composition_layer_image_layout
    XR_KHR_android_surface_swapchain XR_FB_android_surface_swapchain_create XR_KHR_composition_layer_color_scale_bias
    XR_FB_color_space XR_EXT_hand_tracking XR_FB_swapchain_update_state XR_FB_swapchain_update_state_opengl_es
    XR_FB_swapchain_update_state_vulkan XR_FB_composition_layer_alpha_blend XR_KHR_composition_layer_depth
    XR_KHR_composition_layer_cylinder XR_KHR_composition_layer_cube XR_KHR_composition_layer_equirect2
    XR_KHR_convert_timespec_time XR_KHR_visibility_mask XR_FB_render_model XR_FB_spatial_entity
    XR_FB_spatial_entity_query XR_FB_spatial_entity_storage XR_META_performance_metrics
    XR_FB_scene XR_FB_spatial_entity_container XR_FB_scene_capture XR_FB_face_tracking
    XR_FB_eye_tracking XR_FB_keyboard_tracking XR_FB_passthrough XR_FB_triangle_mesh
    XR_FB_passthrough_keyboard_hands XR_OCULUS_audio_device_guid XR_FB_common_events
    XR_FB_space_warp XR_FB_hand_tracking_capsules XR_FB_hand_tracking_mesh XR_FB_hand_tracking_aim
    XR_FB_touch_controller_pro XR_FB_touch_controller_proximity '
  company: Meta
  priority: 0
  required: 0
--- !u!114 &1911531707545204605
MonoBehaviour:
  m_ObjectHideFlags: 0
  m_CorrespondingSourceObject: {fileID: 0}
  m_PrefabInstance: {fileID: 0}
  m_PrefabAsset: {fileID: 0}
  m_GameObject: {fileID: 0}
  m_Enabled: 1
  m_EditorHideFlags: 0
  m_Script: {fileID: 0}
  m_Name: DisplayUtilitiesFeature Android
  m_EditorClassIdentifier: Unity.XR.MetaOpenXR:UnityEngine.XR.OpenXR.Features.Meta:DisplayUtilitiesFeature
  m_enabled: 0
  nameUi: 
  version: 
  featureIdInternal: 
  openxrExtensionStrings: 
  company: 
  priority: 0
  required: 0
--- !u!114 &2163979698669853125
MonoBehaviour:
  m_ObjectHideFlags: 0
  m_CorrespondingSourceObject: {fileID: 0}
  m_PrefabInstance: {fileID: 0}
  m_PrefabAsset: {fileID: 0}
  m_GameObject: {fileID: 0}
  m_Enabled: 1
  m_EditorHideFlags: 0
  m_Script: {fileID: 11500000, guid: b3aced3429e5911458f4da2dac9d0f29, type: 3}
  m_Name: MetaHandTrackingAim Standalone
  m_EditorClassIdentifier: 
  m_enabled: 1
  nameUi: Meta Hand Tracking Aim
  version: 0.0.1
  featureIdInternal: com.unity.openxr.feature.input.metahandtrackingaim
  openxrExtensionStrings: XR_FB_hand_tracking_aim
  company: Unity
  priority: 0
  required: 0
--- !u!114 &2316775424616146661
MonoBehaviour:
  m_ObjectHideFlags: 0
  m_CorrespondingSourceObject: {fileID: 0}
  m_PrefabInstance: {fileID: 0}
  m_PrefabAsset: {fileID: 0}
  m_GameObject: {fileID: 0}
  m_Enabled: 1
  m_EditorHideFlags: 0
  m_Script: {fileID: 11500000, guid: 056125dd64c0ed540b40a4af74f7b495, type: 3}
  m_Name: RuntimeDebuggerOpenXRFeature Standalone
  m_EditorClassIdentifier: 
  m_enabled: 0
  nameUi: Runtime Debugger
  version: 1
  featureIdInternal: com.unity.openxr.features.runtimedebugger
  openxrExtensionStrings: 
  company: Unity
  priority: 0
  required: 0
  cacheSize: 1048576
  perThreadCacheSize: 51200
--- !u!114 &2497339995422133549
MonoBehaviour:
  m_ObjectHideFlags: 0
  m_CorrespondingSourceObject: {fileID: 0}
  m_PrefabInstance: {fileID: 0}
  m_PrefabAsset: {fileID: 0}
  m_GameObject: {fileID: 0}
  m_Enabled: 1
  m_EditorHideFlags: 0
  m_Script: {fileID: 11500000, guid: 274c02963f889a64e90bc2e596e21d13, type: 3}
  m_Name: HTCViveControllerProfile Standalone
  m_EditorClassIdentifier: 
  m_enabled: 1
  nameUi: HTC Vive Controller Profile
  version: 0.0.1
  featureIdInternal: com.unity.openxr.feature.input.htcvive
  openxrExtensionStrings: 
  company: Unity
  priority: 0
  required: 0
--- !u!114 &3093742897576068465
MonoBehaviour:
  m_ObjectHideFlags: 0
  m_CorrespondingSourceObject: {fileID: 0}
  m_PrefabInstance: {fileID: 0}
  m_PrefabAsset: {fileID: 0}
  m_GameObject: {fileID: 0}
  m_Enabled: 1
  m_EditorHideFlags: 0
  m_Script: {fileID: 11500000, guid: 1927c045052a06d49a9b21fdcaa26db6, type: 3}
  m_Name: MetaXRFeature Android
  m_EditorClassIdentifier: 
  m_enabled: 1
  nameUi: Meta XR Feature
  version: 0.0.1
  featureIdInternal: com.meta.openxr.feature.metaxr
  openxrExtensionStrings: 'XR_KHR_vulkan_enable XR_KHR_D3D11_enable XR_OCULUS_common_reference_spaces
    XR_FB_display_refresh_rate XR_EXT_performance_settings XR_FB_composition_layer_image_layout
    XR_KHR_android_surface_swapchain XR_FB_android_surface_swapchain_create XR_KHR_composition_layer_color_scale_bias
    XR_FB_color_space XR_EXT_hand_tracking XR_FB_swapchain_update_state XR_FB_swapchain_update_state_opengl_es
    XR_FB_swapchain_update_state_vulkan XR_FB_composition_layer_alpha_blend XR_KHR_composition_layer_depth
    XR_KHR_composition_layer_cylinder XR_KHR_composition_layer_cube XR_KHR_composition_layer_equirect2
    XR_KHR_convert_timespec_time XR_KHR_visibility_mask XR_FB_render_model XR_FB_spatial_entity
    XR_FB_spatial_entity_query XR_FB_spatial_entity_storage XR_META_performance_metrics
    XR_FB_scene XR_FB_spatial_entity_container XR_FB_scene_capture XR_FB_face_tracking
    XR_FB_eye_tracking XR_FB_keyboard_tracking XR_FB_passthrough XR_FB_triangle_mesh
    XR_FB_passthrough_keyboard_hands XR_OCULUS_audio_device_guid XR_FB_common_events
    XR_FB_space_warp XR_FB_hand_tracking_capsules XR_FB_hand_tracking_mesh XR_FB_hand_tracking_aim
    XR_FB_touch_controller_pro XR_FB_touch_controller_proximity '
  company: Meta
  priority: 0
  required: 0
--- !u!114 &3125381194089690783
MonoBehaviour:
  m_ObjectHideFlags: 0
  m_CorrespondingSourceObject: {fileID: 0}
  m_PrefabInstance: {fileID: 0}
  m_PrefabAsset: {fileID: 0}
  m_GameObject: {fileID: 0}
  m_Enabled: 1
  m_EditorHideFlags: 0
  m_Script: {fileID: 11500000, guid: 96efa89124dda0941802f28ad8249b87, type: 3}
  m_Name: MockDriver Standalone
  m_EditorClassIdentifier: 
  m_enabled: 0
  nameUi: Mock Driver
  version: 0.0.1
  featureIdInternal: com.unity.openxr.feature.mockdriver
  openxrExtensionStrings: XR_UNITY_mock_driver
  company: Unity
  priority: 0
  required: 0
--- !u!114 &3243487182232361114
MonoBehaviour:
  m_ObjectHideFlags: 0
  m_CorrespondingSourceObject: {fileID: 0}
  m_PrefabInstance: {fileID: 0}
  m_PrefabAsset: {fileID: 0}
  m_GameObject: {fileID: 0}
  m_Enabled: 1
  m_EditorHideFlags: 0
  m_Script: {fileID: 11500000, guid: 076937beb8763d94790d2e9cc1248ac8, type: 3}
  m_Name: ARFoundationFeature Android
  m_EditorClassIdentifier: 
  m_enabled: 1
  nameUi: 'AR Foundation: Meta Quest Features'
  version: 0.1.0
  featureIdInternal: com.unity.openxr.feature.arfoundation-meta
  openxrExtensionStrings: 'XR_FB_passthrough XR_FB_spatial_entity XR_FB_spatial_entity_query
    XR_FB_spatial_entity_storage XR_FB_scene '
  company: Unity Technologies
  priority: 0
  required: 0
--- !u!114 &3248602656215098997
MonoBehaviour:
  m_ObjectHideFlags: 0
  m_CorrespondingSourceObject: {fileID: 0}
  m_PrefabInstance: {fileID: 0}
  m_PrefabAsset: {fileID: 0}
  m_GameObject: {fileID: 0}
  m_Enabled: 1
  m_EditorHideFlags: 0
  m_Script: {fileID: 11500000, guid: b3cf79659a011bd419c7a2a30eb74e9a, type: 3}
  m_Name: EyeGazeInteraction WSA
  m_EditorClassIdentifier: 
  m_enabled: 0
  nameUi: Eye Gaze Interaction Profile
  version: 0.0.1
  featureIdInternal: com.unity.openxr.feature.input.eyetracking
  openxrExtensionStrings: XR_EXT_eye_gaze_interaction
  company: Unity
  priority: 0
  required: 0
--- !u!114 &3257090942008302873
MonoBehaviour:
  m_ObjectHideFlags: 0
  m_CorrespondingSourceObject: {fileID: 0}
  m_PrefabInstance: {fileID: 0}
  m_PrefabAsset: {fileID: 0}
  m_GameObject: {fileID: 0}
  m_Enabled: 1
  m_EditorHideFlags: 0
  m_Script: {fileID: 11500000, guid: 5019471fb2174e5c852ecd4047163007, type: 3}
  m_Name: HandInteractionProfile Standalone
  m_EditorClassIdentifier: 
  m_enabled: 0
  nameUi: Hand Interaction Profile
  version: 0.0.1
  featureIdInternal: com.unity.openxr.feature.input.handinteraction
  openxrExtensionStrings: XR_EXT_hand_interaction
  company: Unity
  priority: 0
  required: 0
--- !u!114 &3554264124859437666
MonoBehaviour:
  m_ObjectHideFlags: 0
  m_CorrespondingSourceObject: {fileID: 0}
  m_PrefabInstance: {fileID: 0}
  m_PrefabAsset: {fileID: 0}
  m_GameObject: {fileID: 0}
  m_Enabled: 1
  m_EditorHideFlags: 0
  m_Script: {fileID: 11500000, guid: b3cf79659a011bd419c7a2a30eb74e9a, type: 3}
  m_Name: EyeGazeInteraction Android
  m_EditorClassIdentifier: 
  m_enabled: 0
  nameUi: Eye Gaze Interaction Profile
  version: 0.0.1
  featureIdInternal: com.unity.openxr.feature.input.eyetracking
  openxrExtensionStrings: XR_EXT_eye_gaze_interaction
  company: Unity
  priority: 0
  required: 0
--- !u!114 &3639618665014621312
MonoBehaviour:
  m_ObjectHideFlags: 0
  m_CorrespondingSourceObject: {fileID: 0}
  m_PrefabInstance: {fileID: 0}
  m_PrefabAsset: {fileID: 0}
  m_GameObject: {fileID: 0}
  m_Enabled: 1
  m_EditorHideFlags: 0
  m_Script: {fileID: 0}
  m_Name: DisplayUtilitiesFeature Android
  m_EditorClassIdentifier: Unity.XR.MetaOpenXR:UnityEngine.XR.OpenXR.Features.Meta:DisplayUtilitiesFeature
  m_enabled: 0
  nameUi: 'Meta Quest: Display Utilities'
  version: 0.1.0
  featureIdInternal: com.unity.openxr.feature.meta-display-utilities
  openxrExtensionStrings: XR_FB_display_refresh_rate
  company: Unity Technologies
  priority: 0
  required: 0
--- !u!114 &3725834565339093443
MonoBehaviour:
  m_ObjectHideFlags: 0
  m_CorrespondingSourceObject: {fileID: 0}
  m_PrefabInstance: {fileID: 0}
  m_PrefabAsset: {fileID: 0}
  m_GameObject: {fileID: 0}
  m_Enabled: 1
  m_EditorHideFlags: 0
  m_Script: {fileID: 11500000, guid: 0f6bfdbcb316ed242b30a8798c9eb853, type: 3}
  m_Name: KHRSimpleControllerProfile WSA
  m_EditorClassIdentifier: 
  m_enabled: 0
  nameUi: 
  version: 
  featureIdInternal: 
  openxrExtensionStrings: 
  company: 
  priority: 0
  required: 0
--- !u!114 &3793515592338703587
MonoBehaviour:
  m_ObjectHideFlags: 0
  m_CorrespondingSourceObject: {fileID: 0}
  m_PrefabInstance: {fileID: 0}
  m_PrefabAsset: {fileID: 0}
  m_GameObject: {fileID: 0}
  m_Enabled: 1
  m_EditorHideFlags: 0
  m_Script: {fileID: 11500000, guid: 056125dd64c0ed540b40a4af74f7b495, type: 3}
  m_Name: RuntimeDebuggerOpenXRFeature WSA
  m_EditorClassIdentifier: 
  m_enabled: 0
  nameUi: 
  version: 
  featureIdInternal: 
  openxrExtensionStrings: 
  company: 
  priority: 0
  required: 0
  cacheSize: 1048576
  perThreadCacheSize: 51200
--- !u!114 &4054846353496584751
MonoBehaviour:
  m_ObjectHideFlags: 0
  m_CorrespondingSourceObject: {fileID: 0}
  m_PrefabInstance: {fileID: 0}
  m_PrefabAsset: {fileID: 0}
  m_GameObject: {fileID: 0}
  m_Enabled: 1
  m_EditorHideFlags: 0
  m_Script: {fileID: 11500000, guid: 7de993716e042c6499d0c18eed3a773c, type: 3}
  m_Name: MockRuntime Standalone
  m_EditorClassIdentifier: 
  m_enabled: 0
  nameUi: Mock Runtime
  version: 0.0.2
  featureIdInternal: com.unity.openxr.feature.mockruntime
  openxrExtensionStrings: XR_UNITY_null_gfx XR_UNITY_android_present
  company: Unity
  priority: 0
  required: 0
  ignoreValidationErrors: 0
--- !u!114 &4099446076138934121
MonoBehaviour:
  m_ObjectHideFlags: 0
  m_CorrespondingSourceObject: {fileID: 0}
  m_PrefabInstance: {fileID: 0}
  m_PrefabAsset: {fileID: 0}
  m_GameObject: {fileID: 0}
  m_Enabled: 1
  m_EditorHideFlags: 0
  m_Script: {fileID: 11500000, guid: 1927c045052a06d49a9b21fdcaa26db6, type: 3}
  m_Name: MetaXRFeature Standalone
  m_EditorClassIdentifier: 
  m_enabled: 1
  nameUi: Meta XR Feature
  version: 0.0.1
  featureIdInternal: com.meta.openxr.feature.metaxr
  openxrExtensionStrings: 'XR_KHR_vulkan_enable XR_KHR_D3D11_enable XR_OCULUS_common_reference_spaces
    XR_FB_display_refresh_rate XR_EXT_performance_settings XR_FB_composition_layer_image_layout
    XR_KHR_android_surface_swapchain XR_FB_android_surface_swapchain_create XR_KHR_composition_layer_color_scale_bias
    XR_FB_color_space XR_EXT_hand_tracking XR_FB_swapchain_update_state XR_FB_swapchain_update_state_opengl_es
    XR_FB_swapchain_update_state_vulkan XR_FB_composition_layer_alpha_blend XR_KHR_composition_layer_depth
    XR_KHR_composition_layer_cylinder XR_KHR_composition_layer_cube XR_KHR_composition_layer_equirect2
    XR_KHR_convert_timespec_time XR_KHR_visibility_mask XR_FB_render_model XR_FB_spatial_entity
    XR_FB_spatial_entity_query XR_FB_spatial_entity_storage XR_META_performance_metrics
    XR_FB_scene XR_FB_spatial_entity_container XR_FB_scene_capture XR_FB_face_tracking
    XR_FB_eye_tracking XR_FB_keyboard_tracking XR_FB_passthrough XR_FB_triangle_mesh
    XR_FB_passthrough_keyboard_hands XR_OCULUS_audio_device_guid XR_FB_common_events
    XR_FB_space_warp XR_FB_hand_tracking_capsules XR_FB_hand_tracking_mesh XR_FB_hand_tracking_aim
    XR_FB_touch_controller_pro XR_FB_touch_controller_proximity '
  company: Meta
  priority: 0
  required: 0
--- !u!114 &4257799398954384198
MonoBehaviour:
  m_ObjectHideFlags: 0
  m_CorrespondingSourceObject: {fileID: 0}
  m_PrefabInstance: {fileID: 0}
  m_PrefabAsset: {fileID: 0}
  m_GameObject: {fileID: 0}
  m_Enabled: 1
  m_EditorHideFlags: 0
  m_Script: {fileID: 11500000, guid: b5a1f07dc5afe854f9f12a4194aca3fb, type: 3}
  m_Name: WSA
  m_EditorClassIdentifier: 
  features:
  - {fileID: 5042577589156329498}
  - {fileID: -2381090387618591329}
  - {fileID: 3248602656215098997}
  - {fileID: -8939066665157449454}
  - {fileID: 499066867633824850}
  - {fileID: 370417978492554722}
  - {fileID: 8305501370671237690}
  - {fileID: -5022441705129952878}
  - {fileID: 5765861548572422369}
  - {fileID: -7773718812875860609}
  - {fileID: 4361237768346609889}
  - {fileID: -8010738350575489640}
  - {fileID: -7768313152669196288}
  - {fileID: -1738509262826135873}
  - {fileID: 4521367536559533089}
  - {fileID: -3032281408871642287}
  m_renderMode: 1
  m_depthSubmissionMode: 0
  m_symmetricProjection: 0
--- !u!114 &4361237768346609889
MonoBehaviour:
  m_ObjectHideFlags: 0
  m_CorrespondingSourceObject: {fileID: 0}
  m_PrefabInstance: {fileID: 0}
  m_PrefabAsset: {fileID: 0}
  m_GameObject: {fileID: 0}
  m_Enabled: 1
  m_EditorHideFlags: 0
  m_Script: {fileID: 11500000, guid: f928d0d73a35f294fbe357ca17aa3547, type: 3}
  m_Name: MicrosoftHandInteraction WSA
  m_EditorClassIdentifier: 
  m_enabled: 1
  nameUi: Microsoft Hand Interaction Profile
  version: 0.0.1
  featureIdInternal: com.unity.openxr.feature.input.handtracking
  openxrExtensionStrings: XR_MSFT_hand_interaction
  company: Unity
  priority: 0
  required: 0
--- !u!114 &4521367536559533089
MonoBehaviour:
  m_ObjectHideFlags: 0
  m_CorrespondingSourceObject: {fileID: 0}
  m_PrefabInstance: {fileID: 0}
  m_PrefabAsset: {fileID: 0}
  m_GameObject: {fileID: 0}
  m_Enabled: 1
  m_EditorHideFlags: 0
  m_Script: {fileID: 11500000, guid: 056125dd64c0ed540b40a4af74f7b495, type: 3}
  m_Name: RuntimeDebuggerOpenXRFeature WSA
  m_EditorClassIdentifier: 
  m_enabled: 0
  nameUi: Runtime Debugger
  version: 1
  featureIdInternal: com.unity.openxr.features.runtimedebugger
  openxrExtensionStrings: 
  company: Unity
  priority: 0
  required: 0
  cacheSize: 1048576
  perThreadCacheSize: 51200
--- !u!114 &4743943348186933471
MonoBehaviour:
  m_ObjectHideFlags: 0
  m_CorrespondingSourceObject: {fileID: 0}
  m_PrefabInstance: {fileID: 0}
  m_PrefabAsset: {fileID: 0}
  m_GameObject: {fileID: 0}
  m_Enabled: 1
  m_EditorHideFlags: 0
  m_Script: {fileID: 11500000, guid: feeef8d85de8db242bdda70cc7ff5acd, type: 3}
  m_Name: OculusTouchControllerProfile Android
  m_EditorClassIdentifier: 
  m_enabled: 1
  nameUi: Oculus Touch Controller Profile
  version: 0.0.1
  featureIdInternal: com.unity.openxr.feature.input.oculustouch
  openxrExtensionStrings: 
  company: Unity
  priority: 0
  required: 0
--- !u!114 &4893829345954421791
MonoBehaviour:
  m_ObjectHideFlags: 0
  m_CorrespondingSourceObject: {fileID: 0}
  m_PrefabInstance: {fileID: 0}
  m_PrefabAsset: {fileID: 0}
  m_GameObject: {fileID: 0}
  m_Enabled: 1
  m_EditorHideFlags: 0
  m_Script: {fileID: 11500000, guid: b3cf79659a011bd419c7a2a30eb74e9a, type: 3}
  m_Name: EyeGazeInteraction Standalone
  m_EditorClassIdentifier: 
  m_enabled: 1
  nameUi: Eye Gaze Interaction Profile
  version: 0.0.1
  featureIdInternal: com.unity.openxr.feature.input.eyetracking
  openxrExtensionStrings: XR_EXT_eye_gaze_interaction
  company: Unity
  priority: 0
  required: 0
--- !u!114 &4963040286616351577
MonoBehaviour:
  m_ObjectHideFlags: 0
  m_CorrespondingSourceObject: {fileID: 0}
  m_PrefabInstance: {fileID: 0}
  m_PrefabAsset: {fileID: 0}
  m_GameObject: {fileID: 0}
  m_Enabled: 1
  m_EditorHideFlags: 0
  m_Script: {fileID: 11500000, guid: 486b5e28864f9a94b979b9620ce5006d, type: 3}
  m_Name: ConformanceAutomationFeature Standalone
  m_EditorClassIdentifier: 
  m_enabled: 0
  nameUi: Conformance Automation
  version: 0.0.1
  featureIdInternal: com.unity.openxr.feature.conformance
  openxrExtensionStrings: XR_EXT_conformance_automation
  company: Unity
  priority: 0
  required: 0
--- !u!114 &5042577589156329498
MonoBehaviour:
  m_ObjectHideFlags: 0
  m_CorrespondingSourceObject: {fileID: 0}
  m_PrefabInstance: {fileID: 0}
  m_PrefabAsset: {fileID: 0}
  m_GameObject: {fileID: 0}
  m_Enabled: 1
  m_EditorHideFlags: 0
  m_Script: {fileID: 11500000, guid: 486b5e28864f9a94b979b9620ce5006d, type: 3}
  m_Name: ConformanceAutomationFeature WSA
  m_EditorClassIdentifier: 
  m_enabled: 0
  nameUi: Conformance Automation
  version: 0.0.1
  featureIdInternal: com.unity.openxr.feature.conformance
  openxrExtensionStrings: XR_EXT_conformance_automation
  company: Unity
  priority: 0
  required: 0
--- !u!114 &5410035369217550550
MonoBehaviour:
  m_ObjectHideFlags: 0
  m_CorrespondingSourceObject: {fileID: 0}
  m_PrefabInstance: {fileID: 0}
  m_PrefabAsset: {fileID: 0}
  m_GameObject: {fileID: 0}
  m_Enabled: 1
  m_EditorHideFlags: 0
  m_Script: {fileID: 11500000, guid: 0d6ccd3d0ef0f1d458e69421dccbdae1, type: 3}
  m_Name: ValveIndexControllerProfile WSA
  m_EditorClassIdentifier: 
  m_enabled: 0
  nameUi: 
  version: 
  featureIdInternal: 
  openxrExtensionStrings: 
  company: 
  priority: 0
  required: 0
--- !u!114 &5765861548572422369
MonoBehaviour:
  m_ObjectHideFlags: 0
  m_CorrespondingSourceObject: {fileID: 0}
  m_PrefabInstance: {fileID: 0}
  m_PrefabAsset: {fileID: 0}
  m_GameObject: {fileID: 0}
  m_Enabled: 1
  m_EditorHideFlags: 0
  m_Script: {fileID: 11500000, guid: 0f6bfdbcb316ed242b30a8798c9eb853, type: 3}
  m_Name: KHRSimpleControllerProfile WSA
  m_EditorClassIdentifier: 
  m_enabled: 0
  nameUi: Khronos Simple Controller Profile
  version: 0.0.1
  featureIdInternal: com.unity.openxr.feature.input.khrsimpleprofile
  openxrExtensionStrings: 
  company: Unity
  priority: 0
  required: 0
--- !u!114 &5883027821610069653
MonoBehaviour:
  m_ObjectHideFlags: 0
  m_CorrespondingSourceObject: {fileID: 0}
  m_PrefabInstance: {fileID: 0}
  m_PrefabAsset: {fileID: 0}
  m_GameObject: {fileID: 0}
  m_Enabled: 1
  m_EditorHideFlags: 0
  m_Script: {fileID: 11500000, guid: 9c5b5af5107e35a43818d5411328bfc3, type: 3}
  m_Name: DPadInteraction Standalone
  m_EditorClassIdentifier: 
  m_enabled: 0
  nameUi: D-Pad Binding
  version: 0.0.1
  featureIdInternal: com.unity.openxr.feature.input.dpadinteraction
  openxrExtensionStrings: XR_KHR_binding_modification XR_EXT_dpad_binding
  company: Unity
  priority: 0
  required: 0
  forceThresholdLeft: 0.5
  forceThresholdReleaseLeft: 0.4
  centerRegionLeft: 0.5
  wedgeAngleLeft: 1.5707964
  isStickyLeft: 0
  forceThresholdRight: 0.5
  forceThresholdReleaseRight: 0.4
  centerRegionRight: 0.5
  wedgeAngleRight: 1.5707964
  isStickyRight: 0
  extensionStrings:
  - XR_KHR_binding_modification
  - XR_EXT_dpad_binding
--- !u!114 &5900956354632807544
MonoBehaviour:
  m_ObjectHideFlags: 0
  m_CorrespondingSourceObject: {fileID: 0}
  m_PrefabInstance: {fileID: 0}
  m_PrefabAsset: {fileID: 0}
  m_GameObject: {fileID: 0}
  m_Enabled: 1
  m_EditorHideFlags: 0
  m_Script: {fileID: 11500000, guid: e573a2aed6698b047aff95224499b722, type: 3}
  m_Name: MetaXREyeTrackedFoveationFeature Android
  m_EditorClassIdentifier: 
  m_enabled: 0
  nameUi: Meta XR Eye Tracked Foveation
  version: 0.0.1
  featureIdInternal: com.meta.openxr.feature.eyetrackedfoveation
  openxrExtensionStrings: XR_META_foveation_eye_tracked XR_FB_eye_tracking_social
    XR_META_vulkan_swapchain_create_info
  company: Meta
  priority: 0
  required: 0
--- !u!114 &6168485342768805392
MonoBehaviour:
  m_ObjectHideFlags: 0
  m_CorrespondingSourceObject: {fileID: 0}
  m_PrefabInstance: {fileID: 0}
  m_PrefabAsset: {fileID: 0}
  m_GameObject: {fileID: 0}
  m_Enabled: 1
  m_EditorHideFlags: 0
  m_Script: {fileID: 11500000, guid: e573a2aed6698b047aff95224499b722, type: 3}
  m_Name: MetaXREyeTrackedFoveationFeature Android
  m_EditorClassIdentifier: 
  m_enabled: 0
  nameUi: Meta XR Eye Tracked Foveation
  version: 0.0.1
  featureIdInternal: com.meta.openxr.feature.eyetrackedfoveation
  openxrExtensionStrings: XR_META_foveation_eye_tracked XR_FB_eye_tracking_social
    XR_META_vulkan_swapchain_create_info
  company: Meta
  priority: 0
  required: 0
--- !u!114 &6609416593052356030
MonoBehaviour:
  m_ObjectHideFlags: 0
  m_CorrespondingSourceObject: {fileID: 0}
  m_PrefabInstance: {fileID: 0}
  m_PrefabAsset: {fileID: 0}
  m_GameObject: {fileID: 0}
  m_Enabled: 1
  m_EditorHideFlags: 0
  m_Script: {fileID: 0}
  m_Name: DisplayUtilitiesFeature Android
  m_EditorClassIdentifier: Unity.XR.MetaOpenXR:UnityEngine.XR.OpenXR.Features.Meta:DisplayUtilitiesFeature
  m_enabled: 0
  nameUi: 'Meta Quest: Display Utilities'
  version: 0.1.0
  featureIdInternal: com.unity.openxr.feature.meta-display-utilities
  openxrExtensionStrings: XR_FB_display_refresh_rate
  company: Unity Technologies
  priority: 0
  required: 0
--- !u!114 &6612400554289680647
MonoBehaviour:
  m_ObjectHideFlags: 0
  m_CorrespondingSourceObject: {fileID: 0}
  m_PrefabInstance: {fileID: 0}
  m_PrefabAsset: {fileID: 0}
  m_GameObject: {fileID: 0}
  m_Enabled: 1
  m_EditorHideFlags: 0
  m_Script: {fileID: 11500000, guid: 4ec7ac3a07bc448fbb43bbcff14d5b12, type: 3}
  m_Name: ARRaycastFeature Android
  m_EditorClassIdentifier: 
  m_enabled: 1
  nameUi: 'Meta Quest: AR Raycasts'
  version: 0.1.0
  featureIdInternal: com.unity.openxr.feature.arfoundation-meta-raycast
  openxrExtensionStrings: 
  company: Unity Technologies
  priority: 0
  required: 0
--- !u!114 &7413458854745118488
MonoBehaviour:
  m_ObjectHideFlags: 0
  m_CorrespondingSourceObject: {fileID: 0}
  m_PrefabInstance: {fileID: 0}
  m_PrefabAsset: {fileID: 0}
  m_GameObject: {fileID: 0}
  m_Enabled: 1
  m_EditorHideFlags: 0
  m_Script: {fileID: 11500000, guid: 761fdd4502cb7a84e9ec7a2b24f33f37, type: 3}
  m_Name: MicrosoftMotionControllerProfile Standalone
  m_EditorClassIdentifier: 
  m_enabled: 1
  nameUi: Microsoft Motion Controller Profile
  version: 0.0.1
  featureIdInternal: com.unity.openxr.feature.input.microsoftmotioncontroller
  openxrExtensionStrings: 
  company: Unity
  priority: 0
  required: 0
--- !u!114 &7497383018830012468
MonoBehaviour:
  m_ObjectHideFlags: 0
  m_CorrespondingSourceObject: {fileID: 0}
  m_PrefabInstance: {fileID: 0}
  m_PrefabAsset: {fileID: 0}
  m_GameObject: {fileID: 0}
  m_Enabled: 1
  m_EditorHideFlags: 0
  m_Script: {fileID: 11500000, guid: f647cc0545697264a9878224faada6d5, type: 3}
  m_Name: MetaQuestFeature Android
  m_EditorClassIdentifier: 
  m_enabled: 1
  nameUi: Meta Quest Support
  version: 1.0.0
  featureIdInternal: com.unity.openxr.feature.metaquest
  openxrExtensionStrings: XR_OCULUS_android_initialize_loader
  company: Unity
  priority: 0
  required: 0
  targetDevices:
  - visibleName: Quest
    manifestName: quest
    enabled: 1
  - visibleName: Quest 2
    manifestName: quest2
    enabled: 1
  - visibleName: Quest Pro
    manifestName: cambria
    enabled: 1
  forceRemoveInternetPermission: 1
  symmetricProjection: 0
  systemSplashScreen: {fileID: 0}
  lateLatchingMode: 0
  lateLatchingDebug: 0
--- !u!114 &7558681416710770871
MonoBehaviour:
  m_ObjectHideFlags: 0
  m_CorrespondingSourceObject: {fileID: 0}
  m_PrefabInstance: {fileID: 0}
  m_PrefabAsset: {fileID: 0}
  m_GameObject: {fileID: 0}
  m_Enabled: 1
  m_EditorHideFlags: 0
  m_Script: {fileID: 11500000, guid: 486b5e28864f9a94b979b9620ce5006d, type: 3}
  m_Name: ConformanceAutomationFeature Android
  m_EditorClassIdentifier: 
  m_enabled: 0
  nameUi: Conformance Automation
  version: 0.0.1
  featureIdInternal: com.unity.openxr.feature.conformance
  openxrExtensionStrings: XR_EXT_conformance_automation
  company: Unity
  priority: 0
  required: 0
--- !u!114 &7563124520776219742
MonoBehaviour:
  m_ObjectHideFlags: 0
  m_CorrespondingSourceObject: {fileID: 0}
  m_PrefabInstance: {fileID: 0}
  m_PrefabAsset: {fileID: 0}
  m_GameObject: {fileID: 0}
  m_Enabled: 1
  m_EditorHideFlags: 0
  m_Script: {fileID: 11500000, guid: 7e567abbf4d944210acb6315178bb015, type: 3}
  m_Name: ARCameraFeature Android
  m_EditorClassIdentifier: 
  m_enabled: 1
  nameUi: 'Meta Quest: AR Camera (Passthrough)'
  version: 0.1.0
  featureIdInternal: com.unity.openxr.feature.arfoundation-meta-camera
  openxrExtensionStrings: XR_FB_passthrough XR_FB_composition_layer_alpha_blend
  company: Unity Technologies
  priority: 0
  required: 0
--- !u!114 &7671326878688671304
MonoBehaviour:
  m_ObjectHideFlags: 0
  m_CorrespondingSourceObject: {fileID: 0}
  m_PrefabInstance: {fileID: 0}
  m_PrefabAsset: {fileID: 0}
  m_GameObject: {fileID: 0}
  m_Enabled: 1
  m_EditorHideFlags: 0
  m_Script: {fileID: 11500000, guid: 3d28f705476c80d47acb3dfade3d3142, type: 3}
  m_Name: MetaXRFoveationFeature Android
  m_EditorClassIdentifier: 
  m_enabled: 0
  nameUi: Meta XR Foveation
  version: 1.0.0
  featureIdInternal: com.meta.openxr.feature.foveation
  openxrExtensionStrings: 'XR_FB_foveation XR_FB_foveation_configuration XR_FB_foveation_vulkan '
  company: Meta
  priority: 0
  required: 0
--- !u!114 &7717511180681032800
MonoBehaviour:
  m_ObjectHideFlags: 0
  m_CorrespondingSourceObject: {fileID: 0}
  m_PrefabInstance: {fileID: 0}
  m_PrefabAsset: {fileID: 0}
  m_GameObject: {fileID: 0}
  m_Enabled: 1
  m_EditorHideFlags: 0
  m_Script: {fileID: 11500000, guid: d00bb9c182ae8406ca03773119fa07ea, type: 3}
  m_Name: ARPlaneFeature Android
  m_EditorClassIdentifier: 
  m_enabled: 1
  nameUi: 'Meta Quest: AR Plane Detection'
  version: 0.1.0
  featureIdInternal: com.unity.openxr.feature.arfoundation-meta-plane
  openxrExtensionStrings: XR_FB_spatial_entity XR_FB_spatial_entity_query XR_FB_spatial_entity_storage
    XR_FB_scene
  company: Unity Technologies
  priority: 0
  required: 0
--- !u!114 &7852363257649216605
MonoBehaviour:
  m_ObjectHideFlags: 0
  m_CorrespondingSourceObject: {fileID: 0}
  m_PrefabInstance: {fileID: 0}
  m_PrefabAsset: {fileID: 0}
  m_GameObject: {fileID: 0}
  m_Enabled: 1
  m_EditorHideFlags: 0
  m_Script: {fileID: 11500000, guid: f028123e2efe1d443875bc7609b4a98b, type: 3}
  m_Name: PalmPoseInteraction Standalone
  m_EditorClassIdentifier: 
  m_enabled: 0
  nameUi: Palm Pose
  version: 0.0.1
  featureIdInternal: com.unity.openxr.feature.input.palmpose
  openxrExtensionStrings: XR_EXT_palm_pose
  company: Unity
  priority: 0
  required: 0
--- !u!114 &7933840658392052806
MonoBehaviour:
  m_ObjectHideFlags: 0
  m_CorrespondingSourceObject: {fileID: 0}
  m_PrefabInstance: {fileID: 0}
  m_PrefabAsset: {fileID: 0}
  m_GameObject: {fileID: 0}
  m_Enabled: 1
  m_EditorHideFlags: 0
  m_Script: {fileID: 11500000, guid: 761fdd4502cb7a84e9ec7a2b24f33f37, type: 3}
  m_Name: MicrosoftMotionControllerProfile WSA
  m_EditorClassIdentifier: 
  m_enabled: 0
  nameUi: 
  version: 
  featureIdInternal: 
  openxrExtensionStrings: 
  company: 
  priority: 0
  required: 0
--- !u!114 &8305501370671237690
MonoBehaviour:
  m_ObjectHideFlags: 0
  m_CorrespondingSourceObject: {fileID: 0}
  m_PrefabInstance: {fileID: 0}
  m_PrefabAsset: {fileID: 0}
  m_GameObject: {fileID: 0}
  m_Enabled: 1
  m_EditorHideFlags: 0
  m_Script: {fileID: 11500000, guid: e5315f812f023cf4ebf26f7e5d2d70f2, type: 3}
  m_Name: HPReverbG2ControllerProfile WSA
  m_EditorClassIdentifier: 
  m_enabled: 1
  nameUi: HP Reverb G2 Controller Profile
  version: 0.0.1
  featureIdInternal: com.unity.openxr.feature.input.hpreverb
  openxrExtensionStrings: XR_EXT_hp_mixed_reality_controller
  company: Unity
  priority: 0
  required: 0
--- !u!114 &8594420097343157094
MonoBehaviour:
  m_ObjectHideFlags: 0
  m_CorrespondingSourceObject: {fileID: 0}
  m_PrefabInstance: {fileID: 0}
  m_PrefabAsset: {fileID: 0}
  m_GameObject: {fileID: 0}
  m_Enabled: 1
  m_EditorHideFlags: 0
  m_Script: {fileID: 11500000, guid: 076937beb8763d94790d2e9cc1248ac8, type: 3}
  m_Name: ARSessionFeature Android
  m_EditorClassIdentifier: 
  m_enabled: 1
  nameUi: 'Meta Quest: AR Session'
  version: 0.1.0
  featureIdInternal: com.unity.openxr.feature.arfoundation-meta-session
  openxrExtensionStrings: XR_FB_scene_capture
  company: Unity Technologies
  priority: 0
  required: 0
--- !u!114 &8648385789788843109
MonoBehaviour:
  m_ObjectHideFlags: 0
  m_CorrespondingSourceObject: {fileID: 0}
  m_PrefabInstance: {fileID: 0}
  m_PrefabAsset: {fileID: 0}
  m_GameObject: {fileID: 0}
  m_Enabled: 1
  m_EditorHideFlags: 0
  m_Script: {fileID: 11500000, guid: 4710975c7840e7d499bbb3757c22b0a5, type: 3}
  m_Name: MetaXRSubsampledLayout Standalone
  m_EditorClassIdentifier: 
  m_enabled: 0
  nameUi: Meta XR Subsampled Layout
  version: 0.0.1
  featureIdInternal: com.meta.openxr.feature.subsampledLayout
  openxrExtensionStrings: XR_META_vulkan_swapchain_create_info
  company: Meta
  priority: 0
  required: 0
--- !u!114 &8808601203237548436
MonoBehaviour:
  m_ObjectHideFlags: 0
  m_CorrespondingSourceObject: {fileID: 0}
  m_PrefabInstance: {fileID: 0}
  m_PrefabAsset: {fileID: 0}
  m_GameObject: {fileID: 0}
  m_Enabled: 1
  m_EditorHideFlags: 0
  m_Script: {fileID: 11500000, guid: 85fd4a84074c74cb183c18e803dabb9e, type: 3}
  m_Name: ARAnchorFeature Android
  m_EditorClassIdentifier: 
  m_enabled: 1
  nameUi: 'Meta Quest: AR Anchors'
  version: 0.1.0
  featureIdInternal: com.unity.openxr.feature.arfoundation-meta-anchor
  openxrExtensionStrings: XR_FB_spatial_entity
  company: Unity Technologies
  priority: 0
  required: 0
--- !u!114 &9020184986697725232
MonoBehaviour:
  m_ObjectHideFlags: 0
  m_CorrespondingSourceObject: {fileID: 0}
  m_PrefabInstance: {fileID: 0}
  m_PrefabAsset: {fileID: 0}
  m_GameObject: {fileID: 0}
  m_Enabled: 1
  m_EditorHideFlags: 0
  m_Script: {fileID: 11500000, guid: 0f6bfdbcb316ed242b30a8798c9eb853, type: 3}
  m_Name: KHRSimpleControllerProfile Android
  m_EditorClassIdentifier: 
  m_enabled: 0
  nameUi: Khronos Simple Controller Profile
  version: 0.0.1
  featureIdInternal: com.unity.openxr.feature.input.khrsimpleprofile
  openxrExtensionStrings: 
  company: Unity
  priority: 0
  required: 0
