%YAML 1.1
%TAG !u! tag:unity3d.com,2011:
--- !u!114 &11400000
MonoBehaviour:
  m_ObjectHideFlags: 0
  m_CorrespondingSourceObject: {fileID: 0}
  m_PrefabInstance: {fileID: 0}
  m_PrefabAsset: {fileID: 0}
  m_GameObject: {fileID: 0}
  m_Enabled: 1
  m_EditorHideFlags: 0
  m_Script: {fileID: 11500000, guid: ae5a46bda3295124c99b0e6537ac7252, type: 3}
  m_Name: VoiceSettings
  m_EditorClassIdentifier: 
  _clientAccessToken: UO6UJ3ZXMNGGJRICHOXFFBG42AO76Q4J
  _appInfo:
    name: air_traffic_control
    id: 1436563893965098
    lang: en
    isPrivate: 1
    createdAt: 2024-01-26T08:35:46-0800
    trainingStatus: 1
    lastTrainDuration: 55
    lastTrainedAt: 2024-01-26T17:58:20-0800
    nextTrainAt: 2024-01-26T17:57:25-0800
    intents:
    - id: 779126574057242
      name: move_position
      entities:
      - name: wit$datetime:datetime
        id: 680407597636981
      - name: wit$number:number
        id: 595848369395687
    entities:
    - name: wit$datetime
      id: 535a810f-8911-4bfe-976a-6e3c193f1251
      lookups: []
      roles:
      - name: datetime
        id: 680407597636981
      - name: datetime
        id: 353703554108248
      keywords: []
    - name: wit$number
      id: 535a80e2-6fc8-4991-b707-50dd0c862dfb
      lookups: []
      roles:
      - name: number
        id: 595848369395687
      keywords: []
    traits:
    - name: wit$sentiment
      id: 5ac2b50a-44e4-466e-9d49-bad6bd40092c
      values:
      - id: 561371444570330
        value: negative
      - id: 1621429681354257
        value: neutral
      - id: 2522989351346070
        value: positive
    versionTags: []
    voices:
    - name: wit$Rebecca
      locale: en_US
      gender: female
      styles:
      - default
      - soft
      - formal
      - fast
      - projected
    - name: wit$Charlie
      locale: en_US
      gender: male
      styles:
      - default
      - soft
      - fast
      - projected
    - name: wit$Cooper
      locale: en_US
      gender: male
      styles:
      - default
      - soft
      - formal
      - fast
      - projected
    - name: wit$Vampire
      locale: en_US
      gender: male
      styles:
      - default
      - soft
      - formal
      - fast
      - projected
    - name: wit$Prospector
      locale: en_US
      gender: male
      styles:
      - default
    - name: wit$Cody
      locale: en_US
      gender: male
      styles:
      - default
      - soft
      - formal
      - fast
      - projected
    - name: wit$Remi
      locale: en_US
      gender: female
      styles:
      - default
      - soft
      - formal
      - fast
      - projected
    - name: wit$Cam
      locale: en_US
      gender: male
      styles:
      - default
      - soft
      - formal
      - fast
      - projected
    - name: wit$Connor
      locale: en_US
      gender: male
      styles:
      - default
      - soft
      - formal
      - fast
      - projected
    - name: wit$Railey
      locale: en_US
      gender: female
      styles:
      - default
      - soft
      - formal
      - fast
      - projected
    - name: wit$Cael
      locale: en_US
      gender: male
      styles:
      - default
      - soft
      - formal
      - fast
      - projected
    - name: wit$Carl
      locale: en_US
      gender: male
      styles:
      - default
      - soft
      - formal
      - fast
      - projected
    - name: wit$Rubie
      locale: en_US
      gender: female
      styles:
      - default
      - soft
      - formal
      - fast
      - projected
    - name: wit$Overconfident
      locale: en_US
      gender: male
      styles:
      - default
      - soft
      - formal
      - fast
      - projected
    - name: wit$Disaffected
      locale: en_US
      gender: female
      styles:
      - default
      - soft
      - formal
      - fast
      - projected
    - name: wit$Hollywood
      locale: en_US
      gender: female
      styles:
      - default
      - soft
      - formal
      - fast
      - projected
    - name: wit$Trendy
      locale: en_US
      gender: female
      styles:
      - default
      - soft
      - formal
      - fast
      - projected
    - name: wit$Cartoon Baby
      locale: en_US
      gender: nonbinary
      styles:
      - default
      - soft
      - formal
      - fast
      - projected
    - name: wit$Surfer
      locale: en_US
      gender: male
      styles:
      - default
      - soft
      - formal
      - fast
      - projected
    - name: wit$Southern Accent
      locale: en_US
      gender: male
      styles:
      - default
      - soft
      - formal
      - fast
      - projected
    - name: wit$Kenyan Accent
      locale: en_US
      gender: female
      styles:
      - default
      - soft
      - formal
      - fast
      - projected
    - name: wit$Cartoon Kid
      locale: en_US
      gender: female
      styles:
      - default
      - soft
      - formal
      - fast
      - projected
    - name: wit$Cartoon Villain
      locale: en_US
      gender: female
      styles:
      - default
      - soft
      - formal
      - fast
      - projected
    - name: wit$Rosie
      locale: en_CA
      gender: female
      styles:
      - default
      - soft
      - formal
      - fast
      - projected
    - name: wit$Colin
      locale: en_CA
      gender: male
      styles:
      - default
      - soft
      - formal
      - fast
      - projected
    - name: wit$Pirate
      locale: en_GB
      gender: male
      styles:
      - default
      - soft
      - formal
      - fast
      - projected
    - name: wit$British Butler
      locale: en_GB
      gender: male
      styles:
      - default
      - soft
      - formal
      - fast
      - projected
    - name: wit$Whimsical
      locale: en_GB
      gender: female
      styles:
      - default
      - soft
      - formal
      - fast
      - projected
    - name: wit$Wizard
      locale: en_GB
      gender: male
      styles:
      - default
      - soft
      - formal
      - fast
      - projected
    - name: wit$Cockney Accent
      locale: en_GB
      gender: nonbinary
      styles:
      - default
      - soft
      - formal
      - fast
      - projected
  _configData:
  - {fileID: 229475687933825524}
  _configurationId: dc5ef38b-5c00-4f1d-904e-25c07bf1480e
  timeoutMS: 10000
  endpointConfiguration:
    _uriScheme: 
    _authority: 
    _port: 0
    _witApiVersion: 
    _message: 
    _speech: 
    _dictation: 
    _synthesize: 
    _event: 
    _converse: 
  isDemoOnly: 0
  useConduit: 1
  _manifestLocalPath: ConduitManifest-b7669e27-2ed9-4908-9a91-a4534dd636e4.json
  excludedAssemblies:
  - Oculus.Voice.Demo, Version=0.0.0.0, Culture=neutral, PublicKeyToken=null
  - Meta.WitAi.Samples, Version=0.0.0.0, Culture=neutral, PublicKeyToken=null
  relaxedResolution: 0
--- !u!114 &229475687933825524
MonoBehaviour:
  m_ObjectHideFlags: 0
  m_CorrespondingSourceObject: {fileID: 0}
  m_PrefabInstance: {fileID: 0}
  m_PrefabAsset: {fileID: 0}
  m_GameObject: {fileID: 0}
  m_Enabled: 1
  m_EditorHideFlags: 0
  m_Script: {fileID: 11500000, guid: d1c2918ba0e7451694416d42d69e0944, type: 3}
  m_Name: WitComposerData
  m_EditorClassIdentifier: 
  canvases: []
